%!PS-Adobe-3.0 EPSF-3.0
%%Title: circle.eps
%%Creator: matplotlib version 1.5.1, http://matplotlib.org/
%%CreationDate: Wed Sep 28 03:02:23 2016
%%Orientation: portrait
%%BoundingBox: 90 252 522 540
%%EndComments
%%BeginProlog
/mpldict 8 dict def
mpldict begin
/m { moveto } bind def
/l { lineto } bind def
/r { rlineto } bind def
/c { curveto } bind def
/cl { closepath } bind def
/box {
m
1 index 0 r
0 exch r
neg 0 r
cl
} bind def
/clipbox {
box
clip
newpath
} bind def
%!PS-Adobe-3.0 Resource-Font
%%Title: Bitstream Vera Sans
%%Copyright: Copyright (c) 2003 by Bitstream, Inc. All Rights Reserved.
%%Creator: Converted from TrueType to type 3 by PPR
25 dict begin
/_d{bind def}bind def
/_m{moveto}_d
/_l{lineto}_d
/_cl{closepath eofill}_d
/_c{curveto}_d
/_sc{7 -1 roll{setcachedevice}{pop pop pop pop pop pop}ifelse}_d
/_e{exec}_d
/FontName /BitstreamVeraSans-Roman def
/PaintType 0 def
/FontMatrix[.001 0 0 .001 0 0]def
/FontBBox[-183 -236 1287 928]def
/FontType 3 def
/Encoding [ /period /zero /one /five /minus ] def
/FontInfo 10 dict dup begin
/FamilyName (Bitstream Vera Sans) def
/FullName (Bitstream Vera Sans) def
/Notice (Copyright (c) 2003 by Bitstream, Inc. All Rights Reserved. Bitstream Vera is a trademark of Bitstream, Inc.) def
/Weight (Roman) def
/Version (Release 1.10) def
/ItalicAngle 0.0 def
/isFixedPitch false def
/UnderlinePosition -213 def
/UnderlineThickness 143 def
end readonly def
/CharStrings 5 dict dup begin
/period{318 0 107 0 210 124 _sc
107 124 _m
210 124 _l
210 0 _l
107 0 _l
107 124 _l
_cl}_d
/zero{636 0 66 -13 570 742 _sc
318 664 _m
267 664 229 639 203 589 _c
177 539 165 464 165 364 _c
165 264 177 189 203 139 _c
229 89 267 64 318 64 _c
369 64 407 89 433 139 _c
458 189 471 264 471 364 _c
471 464 458 539 433 589 _c
407 639 369 664 318 664 _c
318 742 _m
399 742 461 709 505 645 _c
548 580 570 486 570 364 _c
570 241 548 147 505 83 _c
461 19 399 -13 318 -13 _c
236 -13 173 19 130 83 _c
87 147 66 241 66 364 _c
66 486 87 580 130 645 _c
173 709 236 742 318 742 _c
_cl}_d
/one{636 0 110 0 544 729 _sc
124 83 _m
285 83 _l
285 639 _l
110 604 _l
110 694 _l
284 729 _l
383 729 _l
383 83 _l
544 83 _l
544 0 _l
124 0 _l
124 83 _l
_cl}_d
/five{{636 0 77 -13 549 729 _sc
108 729 _m
495 729 _l
495 646 _l
198 646 _l
198 467 _l
212 472 227 476 241 478 _c
255 480 270 482 284 482 _c
365 482 429 459 477 415 _c
525 370 549 310 549 234 _c
549 155 524 94 475 51 _c
426 8 357 -13 269 -13 _c
238 -13 207 -10 175 -6 _c
143 -1 111 6 77 17 _c
77 116 _l
106 100 136 88 168 80 _c
199 72 232 69 267 69 _c
}_e{323 69 368 83 401 113 _c
433 143 450 183 450 234 _c
450 284 433 324 401 354 _c
368 384 323 399 267 399 _c
241 399 214 396 188 390 _c
162 384 135 375 108 363 _c
108 729 _l
_cl}_e}_d
/minus{838 0 106 272 732 355 _sc
106 355 _m
732 355 _l
732 272 _l
106 272 _l
106 355 _l
_cl}_d
end readonly def

/BuildGlyph
 {exch begin
 CharStrings exch
 2 copy known not{pop /.notdef}if
 true 3 1 roll get exec
 end}_d

/BuildChar {
 1 index /Encoding get exch get
 1 index /BuildGlyph get exec
}_d

FontName currentdict end definefont pop
end
%%EndProlog
mpldict begin
90 252 translate
432 288 0 0 clipbox
100000 setmiterlimit
gsave
0 0 m
432 0 l
432 288 l
0 288 l
cl
1.000 setgray
fill
grestore
gsave
54 36 m
388.8 36 l
388.8 259.2 l
54 259.2 l
cl
1.000 setgray
fill
grestore
/p0_0 {
newpath
translate
0 -3.162278 m
0.838646 -3.162278 1.643056 -2.82908 2.236068 -2.236068 c
2.82908 -1.643056 3.162278 -0.838646 3.162278 0 c
3.162278 0.838646 2.82908 1.643056 2.236068 2.236068 c
1.643056 2.82908 0.838646 3.162278 0 3.162278 c
-0.838646 3.162278 -1.643056 2.82908 -2.236068 2.236068 c
-2.82908 1.643056 -3.162278 0.838646 -3.162278 0 c
-3.162278 -0.838646 -2.82908 -1.643056 -2.236068 -2.236068 c
-1.643056 -2.82908 -0.838646 -3.162278 0 -3.162278 c
cl

} bind def
1.000 setlinewidth
1 setlinejoin
0 setlinecap
[] 0 setdash
0.000 setgray
gsave
334.8 223.2 54 36 clipbox
192.213 195.318 p0_0
gsave
0.369 0.310 0.635 setrgbcolor
fill
grestore
stroke
grestore
gsave
334.8 223.2 54 36 clipbox
167.789 223.369 p0_0
gsave
0.620 0.004 0.259 setrgbcolor
fill
grestore
stroke
grestore
gsave
334.8 223.2 54 36 clipbox
158.758 192.43 p0_0
gsave
0.369 0.310 0.635 setrgbcolor
fill
grestore
stroke
grestore
gsave
334.8 223.2 54 36 clipbox
300.518 183.78 p0_0
gsave
0.620 0.004 0.259 setrgbcolor
fill
grestore
stroke
grestore
gsave
334.8 223.2 54 36 clipbox
317.598 156.469 p0_0
gsave
0.620 0.004 0.259 setrgbcolor
fill
grestore
stroke
grestore
gsave
334.8 223.2 54 36 clipbox
156.907 145.793 p0_0
gsave
0.369 0.310 0.635 setrgbcolor
fill
grestore
stroke
grestore
gsave
334.8 223.2 54 36 clipbox
199.992 222.879 p0_0
gsave
0.620 0.004 0.259 setrgbcolor
fill
grestore
stroke
grestore
gsave
334.8 223.2 54 36 clipbox
231.524 74.4183 p0_0
gsave
0.620 0.004 0.259 setrgbcolor
fill
grestore
stroke
grestore
gsave
334.8 223.2 54 36 clipbox
272.445 95.7067 p0_0
gsave
0.369 0.310 0.635 setrgbcolor
fill
grestore
stroke
grestore
gsave
334.8 223.2 54 36 clipbox
194.143 83.5973 p0_0
gsave
0.620 0.004 0.259 setrgbcolor
fill
grestore
stroke
grestore
gsave
334.8 223.2 54 36 clipbox
126.762 154.629 p0_0
gsave
0.369 0.310 0.635 setrgbcolor
fill
grestore
stroke
grestore
gsave
334.8 223.2 54 36 clipbox
131.027 102.251 p0_0
gsave
0.620 0.004 0.259 setrgbcolor
fill
grestore
stroke
grestore
gsave
334.8 223.2 54 36 clipbox
325.071 151.472 p0_0
gsave
0.369 0.310 0.635 setrgbcolor
fill
grestore
stroke
grestore
gsave
334.8 223.2 54 36 clipbox
214.552 84.9073 p0_0
gsave
0.369 0.310 0.635 setrgbcolor
fill
grestore
stroke
grestore
gsave
334.8 223.2 54 36 clipbox
129.898 112.618 p0_0
gsave
0.369 0.310 0.635 setrgbcolor
fill
grestore
stroke
grestore
gsave
334.8 223.2 54 36 clipbox
322.382 167.86 p0_0
gsave
0.620 0.004 0.259 setrgbcolor
fill
grestore
stroke
grestore
gsave
334.8 223.2 54 36 clipbox
164.063 76.9425 p0_0
gsave
0.369 0.310 0.635 setrgbcolor
fill
grestore
stroke
grestore
gsave
334.8 223.2 54 36 clipbox
141.161 127.736 p0_0
gsave
0.369 0.310 0.635 setrgbcolor
fill
grestore
stroke
grestore
gsave
334.8 223.2 54 36 clipbox
136.097 202.754 p0_0
gsave
0.620 0.004 0.259 setrgbcolor
fill
grestore
stroke
grestore
gsave
334.8 223.2 54 36 clipbox
179.264 95.313 p0_0
gsave
0.369 0.310 0.635 setrgbcolor
fill
grestore
stroke
grestore
gsave
334.8 223.2 54 36 clipbox
132.066 205.521 p0_0
gsave
0.369 0.310 0.635 setrgbcolor
fill
grestore
stroke
grestore
gsave
334.8 223.2 54 36 clipbox
174.776 69.2374 p0_0
gsave
0.620 0.004 0.259 setrgbcolor
fill
grestore
stroke
grestore
gsave
334.8 223.2 54 36 clipbox
252.693 196.053 p0_0
gsave
0.369 0.310 0.635 setrgbcolor
fill
grestore
stroke
grestore
gsave
334.8 223.2 54 36 clipbox
247.174 199.646 p0_0
gsave
0.369 0.310 0.635 setrgbcolor
fill
grestore
stroke
grestore
gsave
334.8 223.2 54 36 clipbox
120.094 153.184 p0_0
gsave
0.620 0.004 0.259 setrgbcolor
fill
grestore
stroke
grestore
gsave
334.8 223.2 54 36 clipbox
116.298 133.756 p0_0
gsave
0.620 0.004 0.259 setrgbcolor
fill
grestore
stroke
grestore
gsave
334.8 223.2 54 36 clipbox
297.823 118.633 p0_0
gsave
0.369 0.310 0.635 setrgbcolor
fill
grestore
stroke
grestore
gsave
334.8 223.2 54 36 clipbox
318.261 132.698 p0_0
gsave
0.620 0.004 0.259 setrgbcolor
fill
grestore
stroke
grestore
gsave
334.8 223.2 54 36 clipbox
242.811 85.5687 p0_0
gsave
0.620 0.004 0.259 setrgbcolor
fill
grestore
stroke
grestore
gsave
334.8 223.2 54 36 clipbox
275.02 83.2025 p0_0
gsave
0.620 0.004 0.259 setrgbcolor
fill
grestore
stroke
grestore
gsave
334.8 223.2 54 36 clipbox
208.031 68.9808 p0_0
gsave
0.620 0.004 0.259 setrgbcolor
fill
grestore
stroke
grestore
gsave
334.8 223.2 54 36 clipbox
109.162 147.034 p0_0
gsave
0.369 0.310 0.635 setrgbcolor
fill
grestore
stroke
grestore
gsave
334.8 223.2 54 36 clipbox
110.785 126.905 p0_0
gsave
0.620 0.004 0.259 setrgbcolor
fill
grestore
stroke
grestore
gsave
334.8 223.2 54 36 clipbox
263.37 221.304 p0_0
gsave
0.620 0.004 0.259 setrgbcolor
fill
grestore
stroke
grestore
gsave
334.8 223.2 54 36 clipbox
215.536 91.9009 p0_0
gsave
0.369 0.310 0.635 setrgbcolor
fill
grestore
stroke
grestore
gsave
334.8 223.2 54 36 clipbox
324.935 116.719 p0_0
gsave
0.620 0.004 0.259 setrgbcolor
fill
grestore
stroke
grestore
gsave
334.8 223.2 54 36 clipbox
194.069 91.3195 p0_0
gsave
0.369 0.310 0.635 setrgbcolor
fill
grestore
stroke
grestore
gsave
334.8 223.2 54 36 clipbox
143.077 184.475 p0_0
gsave
0.369 0.310 0.635 setrgbcolor
fill
grestore
stroke
grestore
gsave
334.8 223.2 54 36 clipbox
282.029 111.625 p0_0
gsave
0.369 0.310 0.635 setrgbcolor
fill
grestore
stroke
grestore
gsave
334.8 223.2 54 36 clipbox
238.522 223.109 p0_0
gsave
0.620 0.004 0.259 setrgbcolor
fill
grestore
stroke
grestore
gsave
334.8 223.2 54 36 clipbox
244.98 98.1729 p0_0
gsave
0.369 0.310 0.635 setrgbcolor
fill
grestore
stroke
grestore
gsave
334.8 223.2 54 36 clipbox
291.852 116.002 p0_0
gsave
0.369 0.310 0.635 setrgbcolor
fill
grestore
stroke
grestore
gsave
334.8 223.2 54 36 clipbox
161.242 210.169 p0_0
gsave
0.620 0.004 0.259 setrgbcolor
fill
grestore
stroke
grestore
gsave
334.8 223.2 54 36 clipbox
267.894 77.4357 p0_0
gsave
0.620 0.004 0.259 setrgbcolor
fill
grestore
stroke
grestore
gsave
334.8 223.2 54 36 clipbox
199.529 70.9131 p0_0
gsave
0.620 0.004 0.259 setrgbcolor
fill
grestore
stroke
grestore
gsave
334.8 223.2 54 36 clipbox
328.105 174.355 p0_0
gsave
0.620 0.004 0.259 setrgbcolor
fill
grestore
stroke
grestore
gsave
334.8 223.2 54 36 clipbox
160.637 191.202 p0_0
gsave
0.369 0.310 0.635 setrgbcolor
fill
grestore
stroke
grestore
gsave
334.8 223.2 54 36 clipbox
152.885 97.2317 p0_0
gsave
0.369 0.310 0.635 setrgbcolor
fill
grestore
stroke
grestore
gsave
334.8 223.2 54 36 clipbox
301.485 195.179 p0_0
gsave
0.620 0.004 0.259 setrgbcolor
fill
grestore
stroke
grestore
gsave
334.8 223.2 54 36 clipbox
252.86 82.5508 p0_0
gsave
0.369 0.310 0.635 setrgbcolor
fill
grestore
stroke
grestore
gsave
334.8 223.2 54 36 clipbox
156.282 100.888 p0_0
gsave
0.369 0.310 0.635 setrgbcolor
fill
grestore
stroke
grestore
gsave
334.8 223.2 54 36 clipbox
107.568 155.475 p0_0
gsave
0.620 0.004 0.259 setrgbcolor
fill
grestore
stroke
grestore
gsave
334.8 223.2 54 36 clipbox
305.79 106.826 p0_0
gsave
0.369 0.310 0.635 setrgbcolor
fill
grestore
stroke
grestore
gsave
334.8 223.2 54 36 clipbox
160.699 97.0924 p0_0
gsave
0.369 0.310 0.635 setrgbcolor
fill
grestore
stroke
grestore
gsave
334.8 223.2 54 36 clipbox
134.547 161.648 p0_0
gsave
0.620 0.004 0.259 setrgbcolor
fill
grestore
stroke
grestore
gsave
334.8 223.2 54 36 clipbox
262.233 207.327 p0_0
gsave
0.369 0.310 0.635 setrgbcolor
fill
grestore
stroke
grestore
gsave
334.8 223.2 54 36 clipbox
193.245 82.2647 p0_0
gsave
0.369 0.310 0.635 setrgbcolor
fill
grestore
stroke
grestore
gsave
334.8 223.2 54 36 clipbox
208.789 84.3705 p0_0
gsave
0.369 0.310 0.635 setrgbcolor
fill
grestore
stroke
grestore
gsave
334.8 223.2 54 36 clipbox
246.552 78.7829 p0_0
gsave
0.369 0.310 0.635 setrgbcolor
fill
grestore
stroke
grestore
gsave
334.8 223.2 54 36 clipbox
173.343 73.9167 p0_0
gsave
0.620 0.004 0.259 setrgbcolor
fill
grestore
stroke
grestore
gsave
334.8 223.2 54 36 clipbox
275.28 111.15 p0_0
gsave
0.369 0.310 0.635 setrgbcolor
fill
grestore
stroke
grestore
gsave
334.8 223.2 54 36 clipbox
274.753 185.367 p0_0
gsave
0.369 0.310 0.635 setrgbcolor
fill
grestore
stroke
grestore
gsave
334.8 223.2 54 36 clipbox
294.666 169.781 p0_0
gsave
0.369 0.310 0.635 setrgbcolor
fill
grestore
stroke
grestore
gsave
334.8 223.2 54 36 clipbox
208.527 204.177 p0_0
gsave
0.369 0.310 0.635 setrgbcolor
fill
grestore
stroke
grestore
gsave
334.8 223.2 54 36 clipbox
150.169 194.932 p0_0
gsave
0.620 0.004 0.259 setrgbcolor
fill
grestore
stroke
grestore
gsave
334.8 223.2 54 36 clipbox
174.006 89.284 p0_0
gsave
0.369 0.310 0.635 setrgbcolor
fill
grestore
stroke
grestore
gsave
334.8 223.2 54 36 clipbox
123.497 161.64 p0_0
gsave
0.620 0.004 0.259 setrgbcolor
fill
grestore
stroke
grestore
gsave
334.8 223.2 54 36 clipbox
287.183 215.002 p0_0
gsave
0.620 0.004 0.259 setrgbcolor
fill
grestore
stroke
grestore
gsave
334.8 223.2 54 36 clipbox
324.036 166.234 p0_0
gsave
0.620 0.004 0.259 setrgbcolor
fill
grestore
stroke
grestore
gsave
334.8 223.2 54 36 clipbox
240.541 205.765 p0_0
gsave
0.369 0.310 0.635 setrgbcolor
fill
grestore
stroke
grestore
gsave
334.8 223.2 54 36 clipbox
125.087 181.221 p0_0
gsave
0.620 0.004 0.259 setrgbcolor
fill
grestore
stroke
grestore
gsave
334.8 223.2 54 36 clipbox
332.993 156.703 p0_0
gsave
0.620 0.004 0.259 setrgbcolor
fill
grestore
stroke
grestore
gsave
334.8 223.2 54 36 clipbox
139.836 200.978 p0_0
gsave
0.620 0.004 0.259 setrgbcolor
fill
grestore
stroke
grestore
gsave
334.8 223.2 54 36 clipbox
217.605 72.7557 p0_0
gsave
0.620 0.004 0.259 setrgbcolor
fill
grestore
stroke
grestore
gsave
334.8 223.2 54 36 clipbox
263.455 196.553 p0_0
gsave
0.369 0.310 0.635 setrgbcolor
fill
grestore
stroke
grestore
gsave
334.8 223.2 54 36 clipbox
228.597 217.41 p0_0
gsave
0.620 0.004 0.259 setrgbcolor
fill
grestore
stroke
grestore
gsave
334.8 223.2 54 36 clipbox
136.75 168.381 p0_0
gsave
0.369 0.310 0.635 setrgbcolor
fill
grestore
stroke
grestore
gsave
334.8 223.2 54 36 clipbox
301.257 121.518 p0_0
gsave
0.369 0.310 0.635 setrgbcolor
fill
grestore
stroke
grestore
gsave
334.8 223.2 54 36 clipbox
187.493 86.7026 p0_0
gsave
0.620 0.004 0.259 setrgbcolor
fill
grestore
stroke
grestore
gsave
334.8 223.2 54 36 clipbox
154.059 92.3647 p0_0
gsave
0.620 0.004 0.259 setrgbcolor
fill
grestore
stroke
grestore
gsave
334.8 223.2 54 36 clipbox
253.332 208.344 p0_0
gsave
0.369 0.310 0.635 setrgbcolor
fill
grestore
stroke
grestore
gsave
334.8 223.2 54 36 clipbox
305.516 142.865 p0_0
gsave
0.369 0.310 0.635 setrgbcolor
fill
grestore
stroke
grestore
gsave
334.8 223.2 54 36 clipbox
132.831 133.831 p0_0
gsave
0.369 0.310 0.635 setrgbcolor
fill
grestore
stroke
grestore
gsave
334.8 223.2 54 36 clipbox
189.732 85.2735 p0_0
gsave
0.369 0.310 0.635 setrgbcolor
fill
grestore
stroke
grestore
gsave
334.8 223.2 54 36 clipbox
135.409 173.096 p0_0
gsave
0.369 0.310 0.635 setrgbcolor
fill
grestore
stroke
grestore
gsave
334.8 223.2 54 36 clipbox
257.074 190.884 p0_0
gsave
0.369 0.310 0.635 setrgbcolor
fill
grestore
stroke
grestore
gsave
334.8 223.2 54 36 clipbox
289.786 176.204 p0_0
gsave
0.620 0.004 0.259 setrgbcolor
fill
grestore
stroke
grestore
gsave
334.8 223.2 54 36 clipbox
330.299 111.462 p0_0
gsave
0.620 0.004 0.259 setrgbcolor
fill
grestore
stroke
grestore
gsave
334.8 223.2 54 36 clipbox
273.622 201.545 p0_0
gsave
0.620 0.004 0.259 setrgbcolor
fill
grestore
stroke
grestore
gsave
334.8 223.2 54 36 clipbox
191.005 204.499 p0_0
gsave
0.369 0.310 0.635 setrgbcolor
fill
grestore
stroke
grestore
gsave
334.8 223.2 54 36 clipbox
286.128 163.062 p0_0
gsave
0.369 0.310 0.635 setrgbcolor
fill
grestore
stroke
grestore
gsave
334.8 223.2 54 36 clipbox
314.592 177.367 p0_0
gsave
0.369 0.310 0.635 setrgbcolor
fill
grestore
stroke
grestore
gsave
334.8 223.2 54 36 clipbox
340.945 137.627 p0_0
gsave
0.620 0.004 0.259 setrgbcolor
fill
grestore
stroke
grestore
gsave
334.8 223.2 54 36 clipbox
229.774 222.065 p0_0
gsave
0.620 0.004 0.259 setrgbcolor
fill
grestore
stroke
grestore
gsave
334.8 223.2 54 36 clipbox
300.363 156.265 p0_0
gsave
0.369 0.310 0.635 setrgbcolor
fill
grestore
stroke
grestore
gsave
334.8 223.2 54 36 clipbox
263.435 84.9608 p0_0
gsave
0.620 0.004 0.259 setrgbcolor
fill
grestore
stroke
grestore
gsave
334.8 223.2 54 36 clipbox
107.53 170.264 p0_0
gsave
0.620 0.004 0.259 setrgbcolor
fill
grestore
stroke
grestore
gsave
334.8 223.2 54 36 clipbox
244.928 199.114 p0_0
gsave
0.369 0.310 0.635 setrgbcolor
fill
grestore
stroke
grestore
gsave
334.8 223.2 54 36 clipbox
315.596 108.543 p0_0
gsave
0.620 0.004 0.259 setrgbcolor
fill
grestore
stroke
grestore
gsave
334.8 223.2 54 36 clipbox
123.181 179.585 p0_0
gsave
0.620 0.004 0.259 setrgbcolor
fill
grestore
stroke
grestore
gsave
334.8 223.2 54 36 clipbox
301.649 108.736 p0_0
gsave
0.369 0.310 0.635 setrgbcolor
fill
grestore
stroke
grestore
gsave
334.8 223.2 54 36 clipbox
294.342 182.849 p0_0
gsave
0.369 0.310 0.635 setrgbcolor
fill
grestore
stroke
grestore
gsave
334.8 223.2 54 36 clipbox
235.924 87.6327 p0_0
gsave
0.369 0.310 0.635 setrgbcolor
fill
grestore
stroke
grestore
gsave
334.8 223.2 54 36 clipbox
300.318 126.735 p0_0
gsave
0.369 0.310 0.635 setrgbcolor
fill
grestore
stroke
grestore
gsave
334.8 223.2 54 36 clipbox
211.866 205.65 p0_0
gsave
0.369 0.310 0.635 setrgbcolor
fill
grestore
stroke
grestore
gsave
334.8 223.2 54 36 clipbox
300.246 128.278 p0_0
gsave
0.369 0.310 0.635 setrgbcolor
fill
grestore
stroke
grestore
gsave
334.8 223.2 54 36 clipbox
155.899 203.837 p0_0
gsave
0.620 0.004 0.259 setrgbcolor
fill
grestore
stroke
grestore
gsave
334.8 223.2 54 36 clipbox
223.473 224.843 p0_0
gsave
0.620 0.004 0.259 setrgbcolor
fill
grestore
stroke
grestore
gsave
334.8 223.2 54 36 clipbox
185.43 227.849 p0_0
gsave
0.620 0.004 0.259 setrgbcolor
fill
grestore
stroke
grestore
gsave
334.8 223.2 54 36 clipbox
307.69 174.906 p0_0
gsave
0.369 0.310 0.635 setrgbcolor
fill
grestore
stroke
grestore
gsave
334.8 223.2 54 36 clipbox
175.971 78.9794 p0_0
gsave
0.620 0.004 0.259 setrgbcolor
fill
grestore
stroke
grestore
gsave
334.8 223.2 54 36 clipbox
163.78 204.646 p0_0
gsave
0.620 0.004 0.259 setrgbcolor
fill
grestore
stroke
grestore
gsave
334.8 223.2 54 36 clipbox
106.017 176.858 p0_0
gsave
0.620 0.004 0.259 setrgbcolor
fill
grestore
stroke
grestore
gsave
334.8 223.2 54 36 clipbox
113.93 107.719 p0_0
gsave
0.620 0.004 0.259 setrgbcolor
fill
grestore
stroke
grestore
gsave
334.8 223.2 54 36 clipbox
305.287 161.495 p0_0
gsave
0.369 0.310 0.635 setrgbcolor
fill
grestore
stroke
grestore
gsave
334.8 223.2 54 36 clipbox
181.464 186.408 p0_0
gsave
0.369 0.310 0.635 setrgbcolor
fill
grestore
stroke
grestore
gsave
334.8 223.2 54 36 clipbox
290.955 190.728 p0_0
gsave
0.620 0.004 0.259 setrgbcolor
fill
grestore
stroke
grestore
gsave
334.8 223.2 54 36 clipbox
116.459 151.693 p0_0
gsave
0.620 0.004 0.259 setrgbcolor
fill
grestore
stroke
grestore
gsave
334.8 223.2 54 36 clipbox
176.236 208.709 p0_0
gsave
0.369 0.310 0.635 setrgbcolor
fill
grestore
stroke
grestore
gsave
334.8 223.2 54 36 clipbox
317.925 177.387 p0_0
gsave
0.620 0.004 0.259 setrgbcolor
fill
grestore
stroke
grestore
gsave
334.8 223.2 54 36 clipbox
211.354 217.7 p0_0
gsave
0.369 0.310 0.635 setrgbcolor
fill
grestore
stroke
grestore
gsave
334.8 223.2 54 36 clipbox
149.303 180.861 p0_0
gsave
0.369 0.310 0.635 setrgbcolor
fill
grestore
stroke
grestore
gsave
334.8 223.2 54 36 clipbox
127.586 174.801 p0_0
gsave
0.620 0.004 0.259 setrgbcolor
fill
grestore
stroke
grestore
gsave
334.8 223.2 54 36 clipbox
323.016 107.564 p0_0
gsave
0.620 0.004 0.259 setrgbcolor
fill
grestore
stroke
grestore
gsave
334.8 223.2 54 36 clipbox
321.876 142.334 p0_0
gsave
0.620 0.004 0.259 setrgbcolor
fill
grestore
stroke
grestore
gsave
334.8 223.2 54 36 clipbox
123.834 116.345 p0_0
gsave
0.620 0.004 0.259 setrgbcolor
fill
grestore
stroke
grestore
gsave
334.8 223.2 54 36 clipbox
299.171 170.129 p0_0
gsave
0.620 0.004 0.259 setrgbcolor
fill
grestore
stroke
grestore
gsave
334.8 223.2 54 36 clipbox
141.439 120.09 p0_0
gsave
0.369 0.310 0.635 setrgbcolor
fill
grestore
stroke
grestore
gsave
334.8 223.2 54 36 clipbox
170.911 192.321 p0_0
gsave
0.369 0.310 0.635 setrgbcolor
fill
grestore
stroke
grestore
gsave
334.8 223.2 54 36 clipbox
124.014 167.575 p0_0
gsave
0.369 0.310 0.635 setrgbcolor
fill
grestore
stroke
grestore
gsave
334.8 223.2 54 36 clipbox
289.849 85.5733 p0_0
gsave
0.620 0.004 0.259 setrgbcolor
fill
grestore
stroke
grestore
gsave
334.8 223.2 54 36 clipbox
305.412 172.17 p0_0
gsave
0.369 0.310 0.635 setrgbcolor
fill
grestore
stroke
grestore
gsave
334.8 223.2 54 36 clipbox
149.635 93.5375 p0_0
gsave
0.620 0.004 0.259 setrgbcolor
fill
grestore
stroke
grestore
gsave
334.8 223.2 54 36 clipbox
245.408 105.764 p0_0
gsave
0.369 0.310 0.635 setrgbcolor
fill
grestore
stroke
grestore
gsave
334.8 223.2 54 36 clipbox
212.328 212.391 p0_0
gsave
0.620 0.004 0.259 setrgbcolor
fill
grestore
stroke
grestore
gsave
334.8 223.2 54 36 clipbox
112.957 77.1506 p0_0
gsave
0.620 0.004 0.259 setrgbcolor
fill
grestore
stroke
grestore
gsave
334.8 223.2 54 36 clipbox
174.266 98.8064 p0_0
gsave
0.369 0.310 0.635 setrgbcolor
fill
grestore
stroke
grestore
gsave
334.8 223.2 54 36 clipbox
126.257 155.826 p0_0
gsave
0.369 0.310 0.635 setrgbcolor
fill
grestore
stroke
grestore
gsave
334.8 223.2 54 36 clipbox
301.765 126.212 p0_0
gsave
0.369 0.310 0.635 setrgbcolor
fill
grestore
stroke
grestore
gsave
334.8 223.2 54 36 clipbox
330.623 141.476 p0_0
gsave
0.620 0.004 0.259 setrgbcolor
fill
grestore
stroke
grestore
gsave
334.8 223.2 54 36 clipbox
256.139 84.5726 p0_0
gsave
0.369 0.310 0.635 setrgbcolor
fill
grestore
stroke
grestore
gsave
334.8 223.2 54 36 clipbox
319.317 183.167 p0_0
gsave
0.620 0.004 0.259 setrgbcolor
fill
grestore
stroke
grestore
gsave
334.8 223.2 54 36 clipbox
303.021 107.633 p0_0
gsave
0.620 0.004 0.259 setrgbcolor
fill
grestore
stroke
grestore
gsave
334.8 223.2 54 36 clipbox
133.965 115.778 p0_0
gsave
0.620 0.004 0.259 setrgbcolor
fill
grestore
stroke
grestore
gsave
334.8 223.2 54 36 clipbox
290.088 203.733 p0_0
gsave
0.620 0.004 0.259 setrgbcolor
fill
grestore
stroke
grestore
gsave
334.8 223.2 54 36 clipbox
145.014 162.966 p0_0
gsave
0.369 0.310 0.635 setrgbcolor
fill
grestore
stroke
grestore
gsave
334.8 223.2 54 36 clipbox
214.758 85.1675 p0_0
gsave
0.620 0.004 0.259 setrgbcolor
fill
grestore
stroke
grestore
gsave
334.8 223.2 54 36 clipbox
276.884 82.1327 p0_0
gsave
0.620 0.004 0.259 setrgbcolor
fill
grestore
stroke
grestore
gsave
334.8 223.2 54 36 clipbox
146.959 160.961 p0_0
gsave
0.369 0.310 0.635 setrgbcolor
fill
grestore
stroke
grestore
gsave
334.8 223.2 54 36 clipbox
126.479 163.028 p0_0
gsave
0.369 0.310 0.635 setrgbcolor
fill
grestore
stroke
grestore
gsave
334.8 223.2 54 36 clipbox
225.646 91.5208 p0_0
gsave
0.369 0.310 0.635 setrgbcolor
fill
grestore
stroke
grestore
gsave
334.8 223.2 54 36 clipbox
194.807 203.914 p0_0
gsave
0.369 0.310 0.635 setrgbcolor
fill
grestore
stroke
grestore
gsave
334.8 223.2 54 36 clipbox
138.129 160.924 p0_0
gsave
0.369 0.310 0.635 setrgbcolor
fill
grestore
stroke
grestore
gsave
334.8 223.2 54 36 clipbox
258.528 101.941 p0_0
gsave
0.369 0.310 0.635 setrgbcolor
fill
grestore
stroke
grestore
gsave
334.8 223.2 54 36 clipbox
328.556 146.446 p0_0
gsave
0.620 0.004 0.259 setrgbcolor
fill
grestore
stroke
grestore
gsave
334.8 223.2 54 36 clipbox
99.5338 168.337 p0_0
gsave
0.620 0.004 0.259 setrgbcolor
fill
grestore
stroke
grestore
gsave
334.8 223.2 54 36 clipbox
306.728 204.535 p0_0
gsave
0.620 0.004 0.259 setrgbcolor
fill
grestore
stroke
grestore
gsave
334.8 223.2 54 36 clipbox
268.007 185.05 p0_0
gsave
0.369 0.310 0.635 setrgbcolor
fill
grestore
stroke
grestore
gsave
334.8 223.2 54 36 clipbox
278.222 100.266 p0_0
gsave
0.369 0.310 0.635 setrgbcolor
fill
grestore
stroke
grestore
gsave
334.8 223.2 54 36 clipbox
177.75 98.7824 p0_0
gsave
0.369 0.310 0.635 setrgbcolor
fill
grestore
stroke
grestore
gsave
334.8 223.2 54 36 clipbox
126.476 138.072 p0_0
gsave
0.369 0.310 0.635 setrgbcolor
fill
grestore
stroke
grestore
gsave
334.8 223.2 54 36 clipbox
118.651 140.688 p0_0
gsave
0.620 0.004 0.259 setrgbcolor
fill
grestore
stroke
grestore
gsave
334.8 223.2 54 36 clipbox
294.902 175.129 p0_0
gsave
0.369 0.310 0.635 setrgbcolor
fill
grestore
stroke
grestore
gsave
334.8 223.2 54 36 clipbox
325.905 111.91 p0_0
gsave
0.620 0.004 0.259 setrgbcolor
fill
grestore
stroke
grestore
gsave
334.8 223.2 54 36 clipbox
136.605 117.986 p0_0
gsave
0.369 0.310 0.635 setrgbcolor
fill
grestore
stroke
grestore
gsave
334.8 223.2 54 36 clipbox
122.255 159.218 p0_0
gsave
0.369 0.310 0.635 setrgbcolor
fill
grestore
stroke
grestore
gsave
334.8 223.2 54 36 clipbox
156.874 112.413 p0_0
gsave
0.369 0.310 0.635 setrgbcolor
fill
grestore
stroke
grestore
gsave
334.8 223.2 54 36 clipbox
331.195 167.621 p0_0
gsave
0.620 0.004 0.259 setrgbcolor
fill
grestore
stroke
grestore
gsave
334.8 223.2 54 36 clipbox
103.854 130.034 p0_0
gsave
0.620 0.004 0.259 setrgbcolor
fill
grestore
stroke
grestore
gsave
334.8 223.2 54 36 clipbox
297.965 197.326 p0_0
gsave
0.369 0.310 0.635 setrgbcolor
fill
grestore
stroke
grestore
gsave
334.8 223.2 54 36 clipbox
250.633 203.321 p0_0
gsave
0.369 0.310 0.635 setrgbcolor
fill
grestore
stroke
grestore
gsave
334.8 223.2 54 36 clipbox
157.419 77.8725 p0_0
gsave
0.620 0.004 0.259 setrgbcolor
fill
grestore
stroke
grestore
gsave
334.8 223.2 54 36 clipbox
315.298 137.06 p0_0
gsave
0.369 0.310 0.635 setrgbcolor
fill
grestore
stroke
grestore
gsave
334.8 223.2 54 36 clipbox
228.347 187.863 p0_0
gsave
0.369 0.310 0.635 setrgbcolor
fill
grestore
stroke
grestore
gsave
334.8 223.2 54 36 clipbox
172.581 187.983 p0_0
gsave
0.369 0.310 0.635 setrgbcolor
fill
grestore
stroke
grestore
gsave
334.8 223.2 54 36 clipbox
329.175 139.289 p0_0
gsave
0.620 0.004 0.259 setrgbcolor
fill
grestore
stroke
grestore
gsave
334.8 223.2 54 36 clipbox
141.246 118.167 p0_0
gsave
0.369 0.310 0.635 setrgbcolor
fill
grestore
stroke
grestore
gsave
334.8 223.2 54 36 clipbox
316.671 93.8604 p0_0
gsave
0.620 0.004 0.259 setrgbcolor
fill
grestore
stroke
grestore
gsave
334.8 223.2 54 36 clipbox
285.852 188.475 p0_0
gsave
0.369 0.310 0.635 setrgbcolor
fill
grestore
stroke
grestore
gsave
334.8 223.2 54 36 clipbox
130.491 163.392 p0_0
gsave
0.369 0.310 0.635 setrgbcolor
fill
grestore
stroke
grestore
gsave
334.8 223.2 54 36 clipbox
316.736 139.298 p0_0
gsave
0.620 0.004 0.259 setrgbcolor
fill
grestore
stroke
grestore
gsave
334.8 223.2 54 36 clipbox
301.552 194.201 p0_0
gsave
0.620 0.004 0.259 setrgbcolor
fill
grestore
stroke
grestore
gsave
334.8 223.2 54 36 clipbox
291.794 106.324 p0_0
gsave
0.369 0.310 0.635 setrgbcolor
fill
grestore
stroke
grestore
gsave
334.8 223.2 54 36 clipbox
156.203 204.068 p0_0
gsave
0.620 0.004 0.259 setrgbcolor
fill
grestore
stroke
grestore
gsave
334.8 223.2 54 36 clipbox
115.872 158.117 p0_0
gsave
0.620 0.004 0.259 setrgbcolor
fill
grestore
stroke
grestore
gsave
334.8 223.2 54 36 clipbox
181.189 209.899 p0_0
gsave
0.369 0.310 0.635 setrgbcolor
fill
grestore
stroke
grestore
gsave
334.8 223.2 54 36 clipbox
231.356 208.474 p0_0
gsave
0.369 0.310 0.635 setrgbcolor
fill
grestore
stroke
grestore
gsave
334.8 223.2 54 36 clipbox
136.079 107.366 p0_0
gsave
0.620 0.004 0.259 setrgbcolor
fill
grestore
stroke
grestore
gsave
334.8 223.2 54 36 clipbox
135.291 104.12 p0_0
gsave
0.620 0.004 0.259 setrgbcolor
fill
grestore
stroke
grestore
gsave
334.8 223.2 54 36 clipbox
291.272 138.318 p0_0
gsave
0.369 0.310 0.635 setrgbcolor
fill
grestore
stroke
grestore
gsave
334.8 223.2 54 36 clipbox
145.524 214.382 p0_0
gsave
0.620 0.004 0.259 setrgbcolor
fill
grestore
stroke
grestore
gsave
334.8 223.2 54 36 clipbox
268.725 100.272 p0_0
gsave
0.369 0.310 0.635 setrgbcolor
fill
grestore
stroke
grestore
gsave
334.8 223.2 54 36 clipbox
243.382 74.8782 p0_0
gsave
0.620 0.004 0.259 setrgbcolor
fill
grestore
stroke
grestore
gsave
334.8 223.2 54 36 clipbox
259.493 225.903 p0_0
gsave
0.620 0.004 0.259 setrgbcolor
fill
grestore
stroke
grestore
gsave
334.8 223.2 54 36 clipbox
285.156 114.573 p0_0
gsave
0.369 0.310 0.635 setrgbcolor
fill
grestore
stroke
grestore
gsave
334.8 223.2 54 36 clipbox
209.711 196.016 p0_0
gsave
0.369 0.310 0.635 setrgbcolor
fill
grestore
stroke
grestore
gsave
334.8 223.2 54 36 clipbox
167.048 75.7007 p0_0
gsave
0.620 0.004 0.259 setrgbcolor
fill
grestore
stroke
grestore
gsave
334.8 223.2 54 36 clipbox
164.226 190.638 p0_0
gsave
0.369 0.310 0.635 setrgbcolor
fill
grestore
stroke
grestore
gsave
334.8 223.2 54 36 clipbox
322.626 105.378 p0_0
gsave
0.620 0.004 0.259 setrgbcolor
fill
grestore
stroke
grestore
gsave
334.8 223.2 54 36 clipbox
251.49 199.869 p0_0
gsave
0.369 0.310 0.635 setrgbcolor
fill
grestore
stroke
grestore
gsave
334.8 223.2 54 36 clipbox
299.378 107.442 p0_0
gsave
0.620 0.004 0.259 setrgbcolor
fill
grestore
stroke
grestore
gsave
334.8 223.2 54 36 clipbox
147.375 206.663 p0_0
gsave
0.620 0.004 0.259 setrgbcolor
fill
grestore
stroke
grestore
gsave
334.8 223.2 54 36 clipbox
221.921 50.4324 p0_0
gsave
0.620 0.004 0.259 setrgbcolor
fill
grestore
stroke
grestore
gsave
334.8 223.2 54 36 clipbox
90.104 118.946 p0_0
gsave
0.620 0.004 0.259 setrgbcolor
fill
grestore
stroke
grestore
gsave
334.8 223.2 54 36 clipbox
201.897 221.822 p0_0
gsave
0.620 0.004 0.259 setrgbcolor
fill
grestore
stroke
grestore
gsave
334.8 223.2 54 36 clipbox
196.382 212.115 p0_0
gsave
0.620 0.004 0.259 setrgbcolor
fill
grestore
stroke
grestore
gsave
334.8 223.2 54 36 clipbox
184.336 82.8079 p0_0
gsave
0.369 0.310 0.635 setrgbcolor
fill
grestore
stroke
grestore
gsave
334.8 223.2 54 36 clipbox
129.795 140.435 p0_0
gsave
0.369 0.310 0.635 setrgbcolor
fill
grestore
stroke
grestore
gsave
334.8 223.2 54 36 clipbox
191.71 83.9544 p0_0
gsave
0.620 0.004 0.259 setrgbcolor
fill
grestore
stroke
grestore
gsave
334.8 223.2 54 36 clipbox
223.156 203.291 p0_0
gsave
0.369 0.310 0.635 setrgbcolor
fill
grestore
stroke
grestore
gsave
334.8 223.2 54 36 clipbox
319.252 174.936 p0_0
gsave
0.369 0.310 0.635 setrgbcolor
fill
grestore
stroke
grestore
gsave
334.8 223.2 54 36 clipbox
131.44 146.66 p0_0
gsave
0.369 0.310 0.635 setrgbcolor
fill
grestore
stroke
grestore
gsave
334.8 223.2 54 36 clipbox
244.936 79.236 p0_0
gsave
0.620 0.004 0.259 setrgbcolor
fill
grestore
stroke
grestore
gsave
334.8 223.2 54 36 clipbox
268.271 197.853 p0_0
gsave
0.369 0.310 0.635 setrgbcolor
fill
grestore
stroke
grestore
gsave
334.8 223.2 54 36 clipbox
121.379 191.197 p0_0
gsave
0.620 0.004 0.259 setrgbcolor
fill
grestore
stroke
grestore
gsave
334.8 223.2 54 36 clipbox
155.591 82.6974 p0_0
gsave
0.620 0.004 0.259 setrgbcolor
fill
grestore
stroke
grestore
gsave
334.8 223.2 54 36 clipbox
254.466 228.593 p0_0
gsave
0.620 0.004 0.259 setrgbcolor
fill
grestore
stroke
grestore
gsave
334.8 223.2 54 36 clipbox
282.042 201.04 p0_0
gsave
0.369 0.310 0.635 setrgbcolor
fill
grestore
stroke
grestore
gsave
334.8 223.2 54 36 clipbox
155.384 215.192 p0_0
gsave
0.369 0.310 0.635 setrgbcolor
fill
grestore
stroke
grestore
gsave
334.8 223.2 54 36 clipbox
216.737 83.1821 p0_0
gsave
0.369 0.310 0.635 setrgbcolor
fill
grestore
stroke
grestore
gsave
334.8 223.2 54 36 clipbox
328.519 118.931 p0_0
gsave
0.620 0.004 0.259 setrgbcolor
fill
grestore
stroke
grestore
gsave
334.8 223.2 54 36 clipbox
242.955 214.273 p0_0
gsave
0.620 0.004 0.259 setrgbcolor
fill
grestore
stroke
grestore
gsave
334.8 223.2 54 36 clipbox
287.696 185.642 p0_0
gsave
0.369 0.310 0.635 setrgbcolor
fill
grestore
stroke
grestore
gsave
334.8 223.2 54 36 clipbox
221.683 84.5225 p0_0
gsave
0.369 0.310 0.635 setrgbcolor
fill
grestore
stroke
grestore
gsave
334.8 223.2 54 36 clipbox
106.844 115.672 p0_0
gsave
0.620 0.004 0.259 setrgbcolor
fill
grestore
stroke
grestore
gsave
334.8 223.2 54 36 clipbox
127.203 120.468 p0_0
gsave
0.369 0.310 0.635 setrgbcolor
fill
grestore
stroke
grestore
gsave
334.8 223.2 54 36 clipbox
304.854 197.878 p0_0
gsave
0.620 0.004 0.259 setrgbcolor
fill
grestore
stroke
grestore
gsave
334.8 223.2 54 36 clipbox
248.269 211.926 p0_0
gsave
0.620 0.004 0.259 setrgbcolor
fill
grestore
stroke
grestore
gsave
334.8 223.2 54 36 clipbox
116.318 185.734 p0_0
gsave
0.620 0.004 0.259 setrgbcolor
fill
grestore
stroke
grestore
gsave
334.8 223.2 54 36 clipbox
274.21 66.307 p0_0
gsave
0.620 0.004 0.259 setrgbcolor
fill
grestore
stroke
grestore
gsave
334.8 223.2 54 36 clipbox
199.285 218.991 p0_0
gsave
0.620 0.004 0.259 setrgbcolor
fill
grestore
stroke
grestore
gsave
334.8 223.2 54 36 clipbox
95.7961 144.556 p0_0
gsave
0.620 0.004 0.259 setrgbcolor
fill
grestore
stroke
grestore
gsave
334.8 223.2 54 36 clipbox
291.995 79.263 p0_0
gsave
0.620 0.004 0.259 setrgbcolor
fill
grestore
stroke
grestore
gsave
334.8 223.2 54 36 clipbox
139.676 193.805 p0_0
gsave
0.620 0.004 0.259 setrgbcolor
fill
grestore
stroke
grestore
gsave
334.8 223.2 54 36 clipbox
260.147 101.936 p0_0
gsave
0.369 0.310 0.635 setrgbcolor
fill
grestore
stroke
grestore
gsave
334.8 223.2 54 36 clipbox
137.403 145.995 p0_0
gsave
0.369 0.310 0.635 setrgbcolor
fill
grestore
stroke
grestore
gsave
334.8 223.2 54 36 clipbox
135.959 112.168 p0_0
gsave
0.620 0.004 0.259 setrgbcolor
fill
grestore
stroke
grestore
gsave
334.8 223.2 54 36 clipbox
244.904 90.6799 p0_0
gsave
0.369 0.310 0.635 setrgbcolor
fill
grestore
stroke
grestore
gsave
334.8 223.2 54 36 clipbox
123.966 137.451 p0_0
gsave
0.369 0.310 0.635 setrgbcolor
fill
grestore
stroke
grestore
gsave
334.8 223.2 54 36 clipbox
143.324 171.306 p0_0
gsave
0.369 0.310 0.635 setrgbcolor
fill
grestore
stroke
grestore
gsave
334.8 223.2 54 36 clipbox
161.169 195.321 p0_0
gsave
0.369 0.310 0.635 setrgbcolor
fill
grestore
stroke
grestore
gsave
334.8 223.2 54 36 clipbox
195.625 93.4616 p0_0
gsave
0.369 0.310 0.635 setrgbcolor
fill
grestore
stroke
grestore
gsave
334.8 223.2 54 36 clipbox
323.278 144.886 p0_0
gsave
0.369 0.310 0.635 setrgbcolor
fill
grestore
stroke
grestore
gsave
334.8 223.2 54 36 clipbox
223.381 72.9495 p0_0
gsave
0.620 0.004 0.259 setrgbcolor
fill
grestore
stroke
grestore
gsave
334.8 223.2 54 36 clipbox
325.748 184.966 p0_0
gsave
0.620 0.004 0.259 setrgbcolor
fill
grestore
stroke
grestore
gsave
334.8 223.2 54 36 clipbox
305.652 118.086 p0_0
gsave
0.620 0.004 0.259 setrgbcolor
fill
grestore
stroke
grestore
gsave
334.8 223.2 54 36 clipbox
133.718 99.4512 p0_0
gsave
0.620 0.004 0.259 setrgbcolor
fill
grestore
stroke
grestore
gsave
334.8 223.2 54 36 clipbox
256.643 206.752 p0_0
gsave
0.620 0.004 0.259 setrgbcolor
fill
grestore
stroke
grestore
gsave
334.8 223.2 54 36 clipbox
287.831 176.227 p0_0
gsave
0.369 0.310 0.635 setrgbcolor
fill
grestore
stroke
grestore
gsave
334.8 223.2 54 36 clipbox
208.438 226.4 p0_0
gsave
0.620 0.004 0.259 setrgbcolor
fill
grestore
stroke
grestore
gsave
334.8 223.2 54 36 clipbox
199.653 199.359 p0_0
gsave
0.369 0.310 0.635 setrgbcolor
fill
grestore
stroke
grestore
gsave
334.8 223.2 54 36 clipbox
132.549 181.721 p0_0
gsave
0.620 0.004 0.259 setrgbcolor
fill
grestore
stroke
grestore
gsave
334.8 223.2 54 36 clipbox
320.774 146.593 p0_0
gsave
0.369 0.310 0.635 setrgbcolor
fill
grestore
stroke
grestore
gsave
334.8 223.2 54 36 clipbox
274.331 88.9781 p0_0
gsave
0.620 0.004 0.259 setrgbcolor
fill
grestore
stroke
grestore
gsave
334.8 223.2 54 36 clipbox
153.049 200.214 p0_0
gsave
0.620 0.004 0.259 setrgbcolor
fill
grestore
stroke
grestore
gsave
334.8 223.2 54 36 clipbox
317.294 146.029 p0_0
gsave
0.369 0.310 0.635 setrgbcolor
fill
grestore
stroke
grestore
gsave
334.8 223.2 54 36 clipbox
321.877 123.794 p0_0
gsave
0.620 0.004 0.259 setrgbcolor
fill
grestore
stroke
grestore
gsave
334.8 223.2 54 36 clipbox
162.62 211.728 p0_0
gsave
0.620 0.004 0.259 setrgbcolor
fill
grestore
stroke
grestore
gsave
334.8 223.2 54 36 clipbox
326.824 109.346 p0_0
gsave
0.620 0.004 0.259 setrgbcolor
fill
grestore
stroke
grestore
gsave
334.8 223.2 54 36 clipbox
200.952 97.5528 p0_0
gsave
0.369 0.310 0.635 setrgbcolor
fill
grestore
stroke
grestore
gsave
334.8 223.2 54 36 clipbox
126.972 182.061 p0_0
gsave
0.620 0.004 0.259 setrgbcolor
fill
grestore
stroke
grestore
gsave
334.8 223.2 54 36 clipbox
257.224 89.3353 p0_0
gsave
0.620 0.004 0.259 setrgbcolor
fill
grestore
stroke
grestore
gsave
334.8 223.2 54 36 clipbox
196.936 232.833 p0_0
gsave
0.620 0.004 0.259 setrgbcolor
fill
grestore
stroke
grestore
gsave
334.8 223.2 54 36 clipbox
342.939 165.191 p0_0
gsave
0.620 0.004 0.259 setrgbcolor
fill
grestore
stroke
grestore
gsave
334.8 223.2 54 36 clipbox
166.807 82.6168 p0_0
gsave
0.620 0.004 0.259 setrgbcolor
fill
grestore
stroke
grestore
gsave
334.8 223.2 54 36 clipbox
136.722 109.478 p0_0
gsave
0.369 0.310 0.635 setrgbcolor
fill
grestore
stroke
grestore
gsave
334.8 223.2 54 36 clipbox
312.956 141.126 p0_0
gsave
0.369 0.310 0.635 setrgbcolor
fill
grestore
stroke
grestore
gsave
334.8 223.2 54 36 clipbox
308.814 97.2548 p0_0
gsave
0.620 0.004 0.259 setrgbcolor
fill
grestore
stroke
grestore
gsave
334.8 223.2 54 36 clipbox
247.314 79.0886 p0_0
gsave
0.620 0.004 0.259 setrgbcolor
fill
grestore
stroke
grestore
gsave
334.8 223.2 54 36 clipbox
150.195 110.862 p0_0
gsave
0.369 0.310 0.635 setrgbcolor
fill
grestore
stroke
grestore
gsave
334.8 223.2 54 36 clipbox
198.601 69.2756 p0_0
gsave
0.620 0.004 0.259 setrgbcolor
fill
grestore
stroke
grestore
gsave
334.8 223.2 54 36 clipbox
134.89 125.373 p0_0
gsave
0.369 0.310 0.635 setrgbcolor
fill
grestore
stroke
grestore
gsave
334.8 223.2 54 36 clipbox
296.431 206.811 p0_0
gsave
0.620 0.004 0.259 setrgbcolor
fill
grestore
stroke
grestore
gsave
334.8 223.2 54 36 clipbox
257.069 205.916 p0_0
gsave
0.620 0.004 0.259 setrgbcolor
fill
grestore
stroke
grestore
gsave
334.8 223.2 54 36 clipbox
284.645 142.665 p0_0
gsave
0.369 0.310 0.635 setrgbcolor
fill
grestore
stroke
grestore
gsave
334.8 223.2 54 36 clipbox
260.391 209.125 p0_0
gsave
0.620 0.004 0.259 setrgbcolor
fill
grestore
stroke
grestore
gsave
334.8 223.2 54 36 clipbox
202.608 207.218 p0_0
gsave
0.369 0.310 0.635 setrgbcolor
fill
grestore
stroke
grestore
gsave
334.8 223.2 54 36 clipbox
116.923 121.173 p0_0
gsave
0.369 0.310 0.635 setrgbcolor
fill
grestore
stroke
grestore
gsave
334.8 223.2 54 36 clipbox
220.827 223.103 p0_0
gsave
0.620 0.004 0.259 setrgbcolor
fill
grestore
stroke
grestore
gsave
334.8 223.2 54 36 clipbox
313.837 161 p0_0
gsave
0.620 0.004 0.259 setrgbcolor
fill
grestore
stroke
grestore
gsave
334.8 223.2 54 36 clipbox
286.314 100.973 p0_0
gsave
0.369 0.310 0.635 setrgbcolor
fill
grestore
stroke
grestore
gsave
334.8 223.2 54 36 clipbox
198.232 78.8432 p0_0
gsave
0.620 0.004 0.259 setrgbcolor
fill
grestore
stroke
grestore
gsave
334.8 223.2 54 36 clipbox
198.617 211.123 p0_0
gsave
0.369 0.310 0.635 setrgbcolor
fill
grestore
stroke
grestore
gsave
334.8 223.2 54 36 clipbox
213.629 225.589 p0_0
gsave
0.620 0.004 0.259 setrgbcolor
fill
grestore
stroke
grestore
gsave
334.8 223.2 54 36 clipbox
297.971 121.643 p0_0
gsave
0.369 0.310 0.635 setrgbcolor
fill
grestore
stroke
grestore
gsave
334.8 223.2 54 36 clipbox
197.552 88.3878 p0_0
gsave
0.369 0.310 0.635 setrgbcolor
fill
grestore
stroke
grestore
gsave
334.8 223.2 54 36 clipbox
174.891 104.813 p0_0
gsave
0.369 0.310 0.635 setrgbcolor
fill
grestore
stroke
grestore
gsave
334.8 223.2 54 36 clipbox
306.559 191.273 p0_0
gsave
0.369 0.310 0.635 setrgbcolor
fill
grestore
stroke
grestore
gsave
334.8 223.2 54 36 clipbox
153.163 135.714 p0_0
gsave
0.369 0.310 0.635 setrgbcolor
fill
grestore
stroke
grestore
gsave
334.8 223.2 54 36 clipbox
296.098 186.525 p0_0
gsave
0.369 0.310 0.635 setrgbcolor
fill
grestore
stroke
grestore
gsave
334.8 223.2 54 36 clipbox
165.457 171.09 p0_0
gsave
0.369 0.310 0.635 setrgbcolor
fill
grestore
stroke
grestore
gsave
334.8 223.2 54 36 clipbox
121.889 127.811 p0_0
gsave
0.620 0.004 0.259 setrgbcolor
fill
grestore
stroke
grestore
gsave
334.8 223.2 54 36 clipbox
122.256 121.63 p0_0
gsave
0.620 0.004 0.259 setrgbcolor
fill
grestore
stroke
grestore
gsave
334.8 223.2 54 36 clipbox
327.65 170.9 p0_0
gsave
0.620 0.004 0.259 setrgbcolor
fill
grestore
stroke
grestore
gsave
334.8 223.2 54 36 clipbox
305.491 146.532 p0_0
gsave
0.369 0.310 0.635 setrgbcolor
fill
grestore
stroke
grestore
gsave
334.8 223.2 54 36 clipbox
174.625 193.198 p0_0
gsave
0.369 0.310 0.635 setrgbcolor
fill
grestore
stroke
grestore
gsave
334.8 223.2 54 36 clipbox
128.96 134.457 p0_0
gsave
0.620 0.004 0.259 setrgbcolor
fill
grestore
stroke
grestore
gsave
334.8 223.2 54 36 clipbox
295.305 92.8281 p0_0
gsave
0.620 0.004 0.259 setrgbcolor
fill
grestore
stroke
grestore
gsave
334.8 223.2 54 36 clipbox
307.689 168.53 p0_0
gsave
0.369 0.310 0.635 setrgbcolor
fill
grestore
stroke
grestore
gsave
334.8 223.2 54 36 clipbox
133.269 106.673 p0_0
gsave
0.369 0.310 0.635 setrgbcolor
fill
grestore
stroke
grestore
0 setlinejoin
2 setlinecap
gsave
54 259.2 m
388.8 259.2 l
stroke
grestore
gsave
388.8 36 m
388.8 259.2 l
stroke
grestore
gsave
54 36 m
388.8 36 l
stroke
grestore
gsave
54 36 m
54 259.2 l
stroke
grestore
0.500 setlinewidth
1 setlinejoin
0 setlinecap
gsave
/o {
gsave
newpath
translate
0.5 setlinewidth
1 setlinejoin
0 setlinecap
0 0 m
0 4 l

gsave
0.000 setgray
fill
grestore
stroke
grestore
} bind def
54 36 o
grestore
gsave
/o {
gsave
newpath
translate
0.5 setlinewidth
1 setlinejoin
0 setlinecap
0 0 m
0 -4 l

gsave
0.000 setgray
fill
grestore
stroke
grestore
} bind def
54 259.2 o
grestore
/BitstreamVeraSans-Roman findfont
10.000 scalefont
setfont
gsave
41.859375 24.406250 translate
0.000000 rotate
0.000000 0.000000 m /minus glyphshow
8.378906 0.000000 m /one glyphshow
14.741211 0.000000 m /period glyphshow
17.919922 0.000000 m /five glyphshow
grestore
gsave
/o {
gsave
newpath
translate
0.5 setlinewidth
1 setlinejoin
0 setlinecap
0 0 m
0 4 l

gsave
0.000 setgray
fill
grestore
stroke
grestore
} bind def
109.8 36 o
grestore
gsave
/o {
gsave
newpath
translate
0.5 setlinewidth
1 setlinejoin
0 setlinecap
0 0 m
0 -4 l

gsave
0.000 setgray
fill
grestore
stroke
grestore
} bind def
109.8 259.2 o
grestore
gsave
97.659375 24.406250 translate
0.000000 rotate
0.000000 0.000000 m /minus glyphshow
8.378906 0.000000 m /one glyphshow
14.741211 0.000000 m /period glyphshow
17.919922 0.000000 m /zero glyphshow
grestore
gsave
/o {
gsave
newpath
translate
0.5 setlinewidth
1 setlinejoin
0 setlinecap
0 0 m
0 4 l

gsave
0.000 setgray
fill
grestore
stroke
grestore
} bind def
165.6 36 o
grestore
gsave
/o {
gsave
newpath
translate
0.5 setlinewidth
1 setlinejoin
0 setlinecap
0 0 m
0 -4 l

gsave
0.000 setgray
fill
grestore
stroke
grestore
} bind def
165.6 259.2 o
grestore
gsave
153.459375 24.406250 translate
0.000000 rotate
0.000000 0.000000 m /minus glyphshow
8.378906 0.000000 m /zero glyphshow
14.741211 0.000000 m /period glyphshow
17.919922 0.000000 m /five glyphshow
grestore
gsave
/o {
gsave
newpath
translate
0.5 setlinewidth
1 setlinejoin
0 setlinecap
0 0 m
0 4 l

gsave
0.000 setgray
fill
grestore
stroke
grestore
} bind def
221.4 36 o
grestore
gsave
/o {
gsave
newpath
translate
0.5 setlinewidth
1 setlinejoin
0 setlinecap
0 0 m
0 -4 l

gsave
0.000 setgray
fill
grestore
stroke
grestore
} bind def
221.4 259.2 o
grestore
gsave
213.446875 24.406250 translate
0.000000 rotate
0.000000 0.000000 m /zero glyphshow
6.362305 0.000000 m /period glyphshow
9.541016 0.000000 m /zero glyphshow
grestore
gsave
/o {
gsave
newpath
translate
0.5 setlinewidth
1 setlinejoin
0 setlinecap
0 0 m
0 4 l

gsave
0.000 setgray
fill
grestore
stroke
grestore
} bind def
277.2 36 o
grestore
gsave
/o {
gsave
newpath
translate
0.5 setlinewidth
1 setlinejoin
0 setlinecap
0 0 m
0 -4 l

gsave
0.000 setgray
fill
grestore
stroke
grestore
} bind def
277.2 259.2 o
grestore
gsave
269.246875 24.406250 translate
0.000000 rotate
0.000000 0.000000 m /zero glyphshow
6.362305 0.000000 m /period glyphshow
9.541016 0.000000 m /five glyphshow
grestore
gsave
/o {
gsave
newpath
translate
0.5 setlinewidth
1 setlinejoin
0 setlinecap
0 0 m
0 4 l

gsave
0.000 setgray
fill
grestore
stroke
grestore
} bind def
333 36 o
grestore
gsave
/o {
gsave
newpath
translate
0.5 setlinewidth
1 setlinejoin
0 setlinecap
0 0 m
0 -4 l

gsave
0.000 setgray
fill
grestore
stroke
grestore
} bind def
333 259.2 o
grestore
gsave
325.046875 24.406250 translate
0.000000 rotate
0.000000 0.000000 m /one glyphshow
6.362305 0.000000 m /period glyphshow
9.541016 0.000000 m /zero glyphshow
grestore
gsave
/o {
gsave
newpath
translate
0.5 setlinewidth
1 setlinejoin
0 setlinecap
0 0 m
0 4 l

gsave
0.000 setgray
fill
grestore
stroke
grestore
} bind def
388.8 36 o
grestore
gsave
/o {
gsave
newpath
translate
0.5 setlinewidth
1 setlinejoin
0 setlinecap
0 0 m
0 -4 l

gsave
0.000 setgray
fill
grestore
stroke
grestore
} bind def
388.8 259.2 o
grestore
gsave
380.846875 24.406250 translate
0.000000 rotate
0.000000 0.000000 m /one glyphshow
6.362305 0.000000 m /period glyphshow
9.541016 0.000000 m /five glyphshow
grestore
gsave
/o {
gsave
newpath
translate
0.5 setlinewidth
1 setlinejoin
0 setlinecap
0 0 m
4 0 l

gsave
0.000 setgray
fill
grestore
stroke
grestore
} bind def
54 36 o
grestore
gsave
/o {
gsave
newpath
translate
0.5 setlinewidth
1 setlinejoin
0 setlinecap
0 0 m
-4 0 l

gsave
0.000 setgray
fill
grestore
stroke
grestore
} bind def
388.8 36 o
grestore
gsave
25.718750 33.242188 translate
0.000000 rotate
0.000000 0.000000 m /minus glyphshow
8.378906 0.000000 m /one glyphshow
14.741211 0.000000 m /period glyphshow
17.919922 0.000000 m /five glyphshow
grestore
gsave
/o {
gsave
newpath
translate
0.5 setlinewidth
1 setlinejoin
0 setlinecap
0 0 m
4 0 l

gsave
0.000 setgray
fill
grestore
stroke
grestore
} bind def
54 73.2 o
grestore
gsave
/o {
gsave
newpath
translate
0.5 setlinewidth
1 setlinejoin
0 setlinecap
0 0 m
-4 0 l

gsave
0.000 setgray
fill
grestore
stroke
grestore
} bind def
388.8 73.2 o
grestore
gsave
25.718750 70.442188 translate
0.000000 rotate
0.000000 0.000000 m /minus glyphshow
8.378906 0.000000 m /one glyphshow
14.741211 0.000000 m /period glyphshow
17.919922 0.000000 m /zero glyphshow
grestore
gsave
/o {
gsave
newpath
translate
0.5 setlinewidth
1 setlinejoin
0 setlinecap
0 0 m
4 0 l

gsave
0.000 setgray
fill
grestore
stroke
grestore
} bind def
54 110.4 o
grestore
gsave
/o {
gsave
newpath
translate
0.5 setlinewidth
1 setlinejoin
0 setlinecap
0 0 m
-4 0 l

gsave
0.000 setgray
fill
grestore
stroke
grestore
} bind def
388.8 110.4 o
grestore
gsave
25.718750 107.642188 translate
0.000000 rotate
0.000000 0.000000 m /minus glyphshow
8.378906 0.000000 m /zero glyphshow
14.741211 0.000000 m /period glyphshow
17.919922 0.000000 m /five glyphshow
grestore
gsave
/o {
gsave
newpath
translate
0.5 setlinewidth
1 setlinejoin
0 setlinecap
0 0 m
4 0 l

gsave
0.000 setgray
fill
grestore
stroke
grestore
} bind def
54 147.6 o
grestore
gsave
/o {
gsave
newpath
translate
0.5 setlinewidth
1 setlinejoin
0 setlinecap
0 0 m
-4 0 l

gsave
0.000 setgray
fill
grestore
stroke
grestore
} bind def
388.8 147.6 o
grestore
gsave
34.093750 144.842187 translate
0.000000 rotate
0.000000 0.000000 m /zero glyphshow
6.362305 0.000000 m /period glyphshow
9.541016 0.000000 m /zero glyphshow
grestore
gsave
/o {
gsave
newpath
translate
0.5 setlinewidth
1 setlinejoin
0 setlinecap
0 0 m
4 0 l

gsave
0.000 setgray
fill
grestore
stroke
grestore
} bind def
54 184.8 o
grestore
gsave
/o {
gsave
newpath
translate
0.5 setlinewidth
1 setlinejoin
0 setlinecap
0 0 m
-4 0 l

gsave
0.000 setgray
fill
grestore
stroke
grestore
} bind def
388.8 184.8 o
grestore
gsave
34.093750 182.042187 translate
0.000000 rotate
0.000000 0.000000 m /zero glyphshow
6.362305 0.000000 m /period glyphshow
9.541016 0.000000 m /five glyphshow
grestore
gsave
/o {
gsave
newpath
translate
0.5 setlinewidth
1 setlinejoin
0 setlinecap
0 0 m
4 0 l

gsave
0.000 setgray
fill
grestore
stroke
grestore
} bind def
54 222 o
grestore
gsave
/o {
gsave
newpath
translate
0.5 setlinewidth
1 setlinejoin
0 setlinecap
0 0 m
-4 0 l

gsave
0.000 setgray
fill
grestore
stroke
grestore
} bind def
388.8 222 o
grestore
gsave
34.093750 219.242188 translate
0.000000 rotate
0.000000 0.000000 m /one glyphshow
6.362305 0.000000 m /period glyphshow
9.541016 0.000000 m /zero glyphshow
grestore
gsave
/o {
gsave
newpath
translate
0.5 setlinewidth
1 setlinejoin
0 setlinecap
0 0 m
4 0 l

gsave
0.000 setgray
fill
grestore
stroke
grestore
} bind def
54 259.2 o
grestore
gsave
/o {
gsave
newpath
translate
0.5 setlinewidth
1 setlinejoin
0 setlinecap
0 0 m
-4 0 l

gsave
0.000 setgray
fill
grestore
stroke
grestore
} bind def
388.8 259.2 o
grestore
gsave
34.093750 256.442187 translate
0.000000 rotate
0.000000 0.000000 m /one glyphshow
6.362305 0.000000 m /period glyphshow
9.541016 0.000000 m /five glyphshow
grestore

end
showpage
