%!PS-Adobe-3.0 EPSF-3.0
%%Title: data.eps
%%Creator: matplotlib version 1.5.1, http://matplotlib.org/
%%CreationDate: Wed Sep 28 00:41:47 2016
%%Orientation: portrait
%%BoundingBox: 90 252 522 540
%%EndComments
%%BeginProlog
/mpldict 8 dict def
mpldict begin
/m { moveto } bind def
/l { lineto } bind def
/r { rlineto } bind def
/c { curveto } bind def
/cl { closepath } bind def
/box {
m
1 index 0 r
0 exch r
neg 0 r
cl
} bind def
/clipbox {
box
clip
newpath
} bind def
%!PS-Adobe-3.0 Resource-Font
%%Title: Bitstream Vera Sans
%%Copyright: Copyright (c) 2003 by Bitstream, Inc. All Rights Reserved.
%%Creator: Converted from TrueType to type 3 by PPR
25 dict begin
/_d{bind def}bind def
/_m{moveto}_d
/_l{lineto}_d
/_cl{closepath eofill}_d
/_c{curveto}_d
/_sc{7 -1 roll{setcachedevice}{pop pop pop pop pop pop}ifelse}_d
/_e{exec}_d
/FontName /BitstreamVeraSans-Roman def
/PaintType 0 def
/FontMatrix[.001 0 0 .001 0 0]def
/FontBBox[-183 -236 1287 928]def
/FontType 3 def
/Encoding [ /period /zero /one /two /five /minus ] def
/FontInfo 10 dict dup begin
/FamilyName (Bitstream Vera Sans) def
/FullName (Bitstream Vera Sans) def
/Notice (Copyright (c) 2003 by Bitstream, Inc. All Rights Reserved. Bitstream Vera is a trademark of Bitstream, Inc.) def
/Weight (Roman) def
/Version (Release 1.10) def
/ItalicAngle 0.0 def
/isFixedPitch false def
/UnderlinePosition -213 def
/UnderlineThickness 143 def
end readonly def
/CharStrings 6 dict dup begin
/period{318 0 107 0 210 124 _sc
107 124 _m
210 124 _l
210 0 _l
107 0 _l
107 124 _l
_cl}_d
/zero{636 0 66 -13 570 742 _sc
318 664 _m
267 664 229 639 203 589 _c
177 539 165 464 165 364 _c
165 264 177 189 203 139 _c
229 89 267 64 318 64 _c
369 64 407 89 433 139 _c
458 189 471 264 471 364 _c
471 464 458 539 433 589 _c
407 639 369 664 318 664 _c
318 742 _m
399 742 461 709 505 645 _c
548 580 570 486 570 364 _c
570 241 548 147 505 83 _c
461 19 399 -13 318 -13 _c
236 -13 173 19 130 83 _c
87 147 66 241 66 364 _c
66 486 87 580 130 645 _c
173 709 236 742 318 742 _c
_cl}_d
/one{636 0 110 0 544 729 _sc
124 83 _m
285 83 _l
285 639 _l
110 604 _l
110 694 _l
284 729 _l
383 729 _l
383 83 _l
544 83 _l
544 0 _l
124 0 _l
124 83 _l
_cl}_d
/two{{636 0 73 0 536 742 _sc
192 83 _m
536 83 _l
536 0 _l
73 0 _l
73 83 _l
110 121 161 173 226 239 _c
290 304 331 346 348 365 _c
380 400 402 430 414 455 _c
426 479 433 504 433 528 _c
433 566 419 598 392 622 _c
365 646 330 659 286 659 _c
255 659 222 653 188 643 _c
154 632 117 616 78 594 _c
78 694 _l
118 710 155 722 189 730 _c
223 738 255 742 284 742 _c
}_e{359 742 419 723 464 685 _c
509 647 532 597 532 534 _c
532 504 526 475 515 449 _c
504 422 484 390 454 354 _c
446 344 420 317 376 272 _c
332 227 271 164 192 83 _c
_cl}_e}_d
/five{{636 0 77 -13 549 729 _sc
108 729 _m
495 729 _l
495 646 _l
198 646 _l
198 467 _l
212 472 227 476 241 478 _c
255 480 270 482 284 482 _c
365 482 429 459 477 415 _c
525 370 549 310 549 234 _c
549 155 524 94 475 51 _c
426 8 357 -13 269 -13 _c
238 -13 207 -10 175 -6 _c
143 -1 111 6 77 17 _c
77 116 _l
106 100 136 88 168 80 _c
199 72 232 69 267 69 _c
}_e{323 69 368 83 401 113 _c
433 143 450 183 450 234 _c
450 284 433 324 401 354 _c
368 384 323 399 267 399 _c
241 399 214 396 188 390 _c
162 384 135 375 108 363 _c
108 729 _l
_cl}_e}_d
/minus{838 0 106 272 732 355 _sc
106 355 _m
732 355 _l
732 272 _l
106 272 _l
106 355 _l
_cl}_d
end readonly def

/BuildGlyph
 {exch begin
 CharStrings exch
 2 copy known not{pop /.notdef}if
 true 3 1 roll get exec
 end}_d

/BuildChar {
 1 index /Encoding get exch get
 1 index /BuildGlyph get exec
}_d

FontName currentdict end definefont pop
end
%%EndProlog
mpldict begin
90 252 translate
432 288 0 0 clipbox
100000 setmiterlimit
gsave
0 0 m
432 0 l
432 288 l
0 288 l
cl
1.000 setgray
fill
grestore
gsave
54 36 m
388.8 36 l
388.8 259.2 l
54 259.2 l
cl
1.000 setgray
fill
grestore
/p0_0 {
newpath
translate
0 -3.162278 m
0.838646 -3.162278 1.643056 -2.82908 2.236068 -2.236068 c
2.82908 -1.643056 3.162278 -0.838646 3.162278 0 c
3.162278 0.838646 2.82908 1.643056 2.236068 2.236068 c
1.643056 2.82908 0.838646 3.162278 0 3.162278 c
-0.838646 3.162278 -1.643056 2.82908 -2.236068 2.236068 c
-2.82908 1.643056 -3.162278 0.838646 -3.162278 0 c
-3.162278 -0.838646 -2.82908 -1.643056 -2.236068 -2.236068 c
-1.643056 -2.82908 -0.838646 -3.162278 0 -3.162278 c
cl

} bind def
1.000 setlinewidth
1 setlinejoin
0 setlinecap
[] 0 setdash
0.000 setgray
gsave
334.8 223.2 54 36 clipbox
258.114 182.17 p0_0
gsave
0.620 0.004 0.259 setrgbcolor
fill
grestore
stroke
grestore
gsave
334.8 223.2 54 36 clipbox
326.122 100.577 p0_0
gsave
0.369 0.310 0.635 setrgbcolor
fill
grestore
stroke
grestore
gsave
334.8 223.2 54 36 clipbox
190.986 166.635 p0_0
gsave
0.369 0.310 0.635 setrgbcolor
fill
grestore
stroke
grestore
gsave
334.8 223.2 54 36 clipbox
121.797 118.067 p0_0
gsave
0.620 0.004 0.259 setrgbcolor
fill
grestore
stroke
grestore
gsave
334.8 223.2 54 36 clipbox
334.343 128.67 p0_0
gsave
0.369 0.310 0.635 setrgbcolor
fill
grestore
stroke
grestore
gsave
334.8 223.2 54 36 clipbox
348.19 138.039 p0_0
gsave
0.369 0.310 0.635 setrgbcolor
fill
grestore
stroke
grestore
gsave
334.8 223.2 54 36 clipbox
272.509 174.828 p0_0
gsave
0.620 0.004 0.259 setrgbcolor
fill
grestore
stroke
grestore
gsave
334.8 223.2 54 36 clipbox
268.604 112.189 p0_0
gsave
0.369 0.310 0.635 setrgbcolor
fill
grestore
stroke
grestore
gsave
334.8 223.2 54 36 clipbox
263.027 173.679 p0_0
gsave
0.620 0.004 0.259 setrgbcolor
fill
grestore
stroke
grestore
gsave
334.8 223.2 54 36 clipbox
294.149 99.3999 p0_0
gsave
0.369 0.310 0.635 setrgbcolor
fill
grestore
stroke
grestore
gsave
334.8 223.2 54 36 clipbox
174.19 185.482 p0_0
gsave
0.620 0.004 0.259 setrgbcolor
fill
grestore
stroke
grestore
gsave
334.8 223.2 54 36 clipbox
209.684 124.076 p0_0
gsave
0.369 0.310 0.635 setrgbcolor
fill
grestore
stroke
grestore
gsave
334.8 223.2 54 36 clipbox
336.372 123.617 p0_0
gsave
0.369 0.310 0.635 setrgbcolor
fill
grestore
stroke
grestore
gsave
334.8 223.2 54 36 clipbox
309.833 135.847 p0_0
gsave
0.369 0.310 0.635 setrgbcolor
fill
grestore
stroke
grestore
gsave
334.8 223.2 54 36 clipbox
141.521 212.196 p0_0
gsave
0.620 0.004 0.259 setrgbcolor
fill
grestore
stroke
grestore
gsave
334.8 223.2 54 36 clipbox
276.927 160.479 p0_0
gsave
0.620 0.004 0.259 setrgbcolor
fill
grestore
stroke
grestore
gsave
334.8 223.2 54 36 clipbox
252.193 218.027 p0_0
gsave
0.620 0.004 0.259 setrgbcolor
fill
grestore
stroke
grestore
gsave
334.8 223.2 54 36 clipbox
212.643 128.232 p0_0
gsave
0.369 0.310 0.635 setrgbcolor
fill
grestore
stroke
grestore
gsave
334.8 223.2 54 36 clipbox
221.268 206.082 p0_0
gsave
0.620 0.004 0.259 setrgbcolor
fill
grestore
stroke
grestore
gsave
334.8 223.2 54 36 clipbox
128.108 233.314 p0_0
gsave
0.620 0.004 0.259 setrgbcolor
fill
grestore
stroke
grestore
gsave
334.8 223.2 54 36 clipbox
357.707 148.132 p0_0
gsave
0.369 0.310 0.635 setrgbcolor
fill
grestore
stroke
grestore
gsave
334.8 223.2 54 36 clipbox
267.589 115.112 p0_0
gsave
0.369 0.310 0.635 setrgbcolor
fill
grestore
stroke
grestore
gsave
334.8 223.2 54 36 clipbox
230.528 223.297 p0_0
gsave
0.620 0.004 0.259 setrgbcolor
fill
grestore
stroke
grestore
gsave
334.8 223.2 54 36 clipbox
297.092 138.811 p0_0
gsave
0.369 0.310 0.635 setrgbcolor
fill
grestore
stroke
grestore
gsave
334.8 223.2 54 36 clipbox
192.927 241.83 p0_0
gsave
0.620 0.004 0.259 setrgbcolor
fill
grestore
stroke
grestore
gsave
334.8 223.2 54 36 clipbox
217.926 162.122 p0_0
gsave
0.369 0.310 0.635 setrgbcolor
fill
grestore
stroke
grestore
gsave
334.8 223.2 54 36 clipbox
350.39 139.251 p0_0
gsave
0.369 0.310 0.635 setrgbcolor
fill
grestore
stroke
grestore
gsave
334.8 223.2 54 36 clipbox
338.766 145.304 p0_0
gsave
0.369 0.310 0.635 setrgbcolor
fill
grestore
stroke
grestore
gsave
334.8 223.2 54 36 clipbox
199.93 153.838 p0_0
gsave
0.369 0.310 0.635 setrgbcolor
fill
grestore
stroke
grestore
gsave
334.8 223.2 54 36 clipbox
205.293 194.557 p0_0
gsave
0.620 0.004 0.259 setrgbcolor
fill
grestore
stroke
grestore
gsave
334.8 223.2 54 36 clipbox
272.88 194.624 p0_0
gsave
0.620 0.004 0.259 setrgbcolor
fill
grestore
stroke
grestore
gsave
334.8 223.2 54 36 clipbox
173.686 178.048 p0_0
gsave
0.620 0.004 0.259 setrgbcolor
fill
grestore
stroke
grestore
gsave
334.8 223.2 54 36 clipbox
268.538 120.914 p0_0
gsave
0.369 0.310 0.635 setrgbcolor
fill
grestore
stroke
grestore
gsave
334.8 223.2 54 36 clipbox
201.951 170.246 p0_0
gsave
0.369 0.310 0.635 setrgbcolor
fill
grestore
stroke
grestore
gsave
334.8 223.2 54 36 clipbox
259.253 204.186 p0_0
gsave
0.620 0.004 0.259 setrgbcolor
fill
grestore
stroke
grestore
gsave
334.8 223.2 54 36 clipbox
336.284 168.673 p0_0
gsave
0.369 0.310 0.635 setrgbcolor
fill
grestore
stroke
grestore
gsave
334.8 223.2 54 36 clipbox
244.551 145.145 p0_0
gsave
0.369 0.310 0.635 setrgbcolor
fill
grestore
stroke
grestore
gsave
334.8 223.2 54 36 clipbox
267.648 148.877 p0_0
gsave
0.620 0.004 0.259 setrgbcolor
fill
grestore
stroke
grestore
gsave
334.8 223.2 54 36 clipbox
146.857 195.066 p0_0
gsave
0.620 0.004 0.259 setrgbcolor
fill
grestore
stroke
grestore
gsave
334.8 223.2 54 36 clipbox
186.498 184.549 p0_0
gsave
0.369 0.310 0.635 setrgbcolor
fill
grestore
stroke
grestore
gsave
334.8 223.2 54 36 clipbox
250.202 106.28 p0_0
gsave
0.369 0.310 0.635 setrgbcolor
fill
grestore
stroke
grestore
gsave
334.8 223.2 54 36 clipbox
183.805 210.062 p0_0
gsave
0.620 0.004 0.259 setrgbcolor
fill
grestore
stroke
grestore
gsave
334.8 223.2 54 36 clipbox
245.768 195.636 p0_0
gsave
0.620 0.004 0.259 setrgbcolor
fill
grestore
stroke
grestore
gsave
334.8 223.2 54 36 clipbox
214.653 145.491 p0_0
gsave
0.369 0.310 0.635 setrgbcolor
fill
grestore
stroke
grestore
gsave
334.8 223.2 54 36 clipbox
316.853 120.609 p0_0
gsave
0.369 0.310 0.635 setrgbcolor
fill
grestore
stroke
grestore
gsave
334.8 223.2 54 36 clipbox
184.461 228.797 p0_0
gsave
0.620 0.004 0.259 setrgbcolor
fill
grestore
stroke
grestore
gsave
334.8 223.2 54 36 clipbox
289.434 148.713 p0_0
gsave
0.620 0.004 0.259 setrgbcolor
fill
grestore
stroke
grestore
gsave
334.8 223.2 54 36 clipbox
150.293 188.433 p0_0
gsave
0.620 0.004 0.259 setrgbcolor
fill
grestore
stroke
grestore
gsave
334.8 223.2 54 36 clipbox
215.388 124.614 p0_0
gsave
0.369 0.310 0.635 setrgbcolor
fill
grestore
stroke
grestore
gsave
334.8 223.2 54 36 clipbox
282.541 117.734 p0_0
gsave
0.369 0.310 0.635 setrgbcolor
fill
grestore
stroke
grestore
gsave
334.8 223.2 54 36 clipbox
136.06 212.842 p0_0
gsave
0.620 0.004 0.259 setrgbcolor
fill
grestore
stroke
grestore
gsave
334.8 223.2 54 36 clipbox
238.724 131.639 p0_0
gsave
0.369 0.310 0.635 setrgbcolor
fill
grestore
stroke
grestore
gsave
334.8 223.2 54 36 clipbox
370.599 149.73 p0_0
gsave
0.369 0.310 0.635 setrgbcolor
fill
grestore
stroke
grestore
gsave
334.8 223.2 54 36 clipbox
156.283 150.478 p0_0
gsave
0.620 0.004 0.259 setrgbcolor
fill
grestore
stroke
grestore
gsave
334.8 223.2 54 36 clipbox
294.179 110.311 p0_0
gsave
0.369 0.310 0.635 setrgbcolor
fill
grestore
stroke
grestore
gsave
334.8 223.2 54 36 clipbox
265.481 189.062 p0_0
gsave
0.620 0.004 0.259 setrgbcolor
fill
grestore
stroke
grestore
gsave
334.8 223.2 54 36 clipbox
236.918 184.927 p0_0
gsave
0.620 0.004 0.259 setrgbcolor
fill
grestore
stroke
grestore
gsave
334.8 223.2 54 36 clipbox
275.736 105.332 p0_0
gsave
0.369 0.310 0.635 setrgbcolor
fill
grestore
stroke
grestore
gsave
334.8 223.2 54 36 clipbox
210.686 214.943 p0_0
gsave
0.620 0.004 0.259 setrgbcolor
fill
grestore
stroke
grestore
gsave
334.8 223.2 54 36 clipbox
186.743 224.62 p0_0
gsave
0.620 0.004 0.259 setrgbcolor
fill
grestore
stroke
grestore
gsave
334.8 223.2 54 36 clipbox
207.801 135.331 p0_0
gsave
0.369 0.310 0.635 setrgbcolor
fill
grestore
stroke
grestore
gsave
334.8 223.2 54 36 clipbox
122.542 174.863 p0_0
gsave
0.620 0.004 0.259 setrgbcolor
fill
grestore
stroke
grestore
gsave
334.8 223.2 54 36 clipbox
321.968 119.622 p0_0
gsave
0.369 0.310 0.635 setrgbcolor
fill
grestore
stroke
grestore
gsave
334.8 223.2 54 36 clipbox
279.129 178.955 p0_0
gsave
0.620 0.004 0.259 setrgbcolor
fill
grestore
stroke
grestore
gsave
334.8 223.2 54 36 clipbox
282.214 118.745 p0_0
gsave
0.369 0.310 0.635 setrgbcolor
fill
grestore
stroke
grestore
gsave
334.8 223.2 54 36 clipbox
102.016 168.822 p0_0
gsave
0.620 0.004 0.259 setrgbcolor
fill
grestore
stroke
grestore
gsave
334.8 223.2 54 36 clipbox
187.336 228.728 p0_0
gsave
0.620 0.004 0.259 setrgbcolor
fill
grestore
stroke
grestore
gsave
334.8 223.2 54 36 clipbox
323.069 125.675 p0_0
gsave
0.369 0.310 0.635 setrgbcolor
fill
grestore
stroke
grestore
gsave
334.8 223.2 54 36 clipbox
222.423 215.682 p0_0
gsave
0.620 0.004 0.259 setrgbcolor
fill
grestore
stroke
grestore
gsave
334.8 223.2 54 36 clipbox
128.545 194.041 p0_0
gsave
0.620 0.004 0.259 setrgbcolor
fill
grestore
stroke
grestore
gsave
334.8 223.2 54 36 clipbox
249.132 108.313 p0_0
gsave
0.369 0.310 0.635 setrgbcolor
fill
grestore
stroke
grestore
gsave
334.8 223.2 54 36 clipbox
121.904 205.728 p0_0
gsave
0.620 0.004 0.259 setrgbcolor
fill
grestore
stroke
grestore
gsave
334.8 223.2 54 36 clipbox
203.74 103.172 p0_0
gsave
0.369 0.310 0.635 setrgbcolor
fill
grestore
stroke
grestore
gsave
334.8 223.2 54 36 clipbox
163.403 199.165 p0_0
gsave
0.369 0.310 0.635 setrgbcolor
fill
grestore
stroke
grestore
gsave
334.8 223.2 54 36 clipbox
261.102 128.372 p0_0
gsave
0.369 0.310 0.635 setrgbcolor
fill
grestore
stroke
grestore
gsave
334.8 223.2 54 36 clipbox
132.669 190.2 p0_0
gsave
0.620 0.004 0.259 setrgbcolor
fill
grestore
stroke
grestore
gsave
334.8 223.2 54 36 clipbox
209.532 154.229 p0_0
gsave
0.369 0.310 0.635 setrgbcolor
fill
grestore
stroke
grestore
gsave
334.8 223.2 54 36 clipbox
276.989 173.653 p0_0
gsave
0.620 0.004 0.259 setrgbcolor
fill
grestore
stroke
grestore
gsave
334.8 223.2 54 36 clipbox
237.249 211.876 p0_0
gsave
0.620 0.004 0.259 setrgbcolor
fill
grestore
stroke
grestore
gsave
334.8 223.2 54 36 clipbox
256.21 140.377 p0_0
gsave
0.369 0.310 0.635 setrgbcolor
fill
grestore
stroke
grestore
gsave
334.8 223.2 54 36 clipbox
361.518 155.933 p0_0
gsave
0.369 0.310 0.635 setrgbcolor
fill
grestore
stroke
grestore
gsave
334.8 223.2 54 36 clipbox
171.949 216.237 p0_0
gsave
0.620 0.004 0.259 setrgbcolor
fill
grestore
stroke
grestore
gsave
334.8 223.2 54 36 clipbox
249.18 95.9495 p0_0
gsave
0.369 0.310 0.635 setrgbcolor
fill
grestore
stroke
grestore
gsave
334.8 223.2 54 36 clipbox
355.298 196.978 p0_0
gsave
0.369 0.310 0.635 setrgbcolor
fill
grestore
stroke
grestore
gsave
334.8 223.2 54 36 clipbox
202.537 163.586 p0_0
gsave
0.369 0.310 0.635 setrgbcolor
fill
grestore
stroke
grestore
gsave
334.8 223.2 54 36 clipbox
182.242 247.416 p0_0
gsave
0.620 0.004 0.259 setrgbcolor
fill
grestore
stroke
grestore
gsave
334.8 223.2 54 36 clipbox
264.003 145.876 p0_0
gsave
0.620 0.004 0.259 setrgbcolor
fill
grestore
stroke
grestore
gsave
334.8 223.2 54 36 clipbox
168.122 221.081 p0_0
gsave
0.620 0.004 0.259 setrgbcolor
fill
grestore
stroke
grestore
gsave
334.8 223.2 54 36 clipbox
250.733 120.66 p0_0
gsave
0.369 0.310 0.635 setrgbcolor
fill
grestore
stroke
grestore
gsave
334.8 223.2 54 36 clipbox
349.132 167.292 p0_0
gsave
0.369 0.310 0.635 setrgbcolor
fill
grestore
stroke
grestore
gsave
334.8 223.2 54 36 clipbox
255.669 207.857 p0_0
gsave
0.620 0.004 0.259 setrgbcolor
fill
grestore
stroke
grestore
gsave
334.8 223.2 54 36 clipbox
286.738 182.303 p0_0
gsave
0.620 0.004 0.259 setrgbcolor
fill
grestore
stroke
grestore
gsave
334.8 223.2 54 36 clipbox
350.968 149.486 p0_0
gsave
0.369 0.310 0.635 setrgbcolor
fill
grestore
stroke
grestore
gsave
334.8 223.2 54 36 clipbox
153.442 211.064 p0_0
gsave
0.620 0.004 0.259 setrgbcolor
fill
grestore
stroke
grestore
gsave
334.8 223.2 54 36 clipbox
354.846 165.875 p0_0
gsave
0.369 0.310 0.635 setrgbcolor
fill
grestore
stroke
grestore
gsave
334.8 223.2 54 36 clipbox
334.769 139.778 p0_0
gsave
0.369 0.310 0.635 setrgbcolor
fill
grestore
stroke
grestore
gsave
334.8 223.2 54 36 clipbox
334.746 122.228 p0_0
gsave
0.369 0.310 0.635 setrgbcolor
fill
grestore
stroke
grestore
gsave
334.8 223.2 54 36 clipbox
252.006 124.302 p0_0
gsave
0.369 0.310 0.635 setrgbcolor
fill
grestore
stroke
grestore
gsave
334.8 223.2 54 36 clipbox
116.911 177.787 p0_0
gsave
0.620 0.004 0.259 setrgbcolor
fill
grestore
stroke
grestore
gsave
334.8 223.2 54 36 clipbox
205.901 142.048 p0_0
gsave
0.369 0.310 0.635 setrgbcolor
fill
grestore
stroke
grestore
gsave
334.8 223.2 54 36 clipbox
307.277 78.2545 p0_0
gsave
0.369 0.310 0.635 setrgbcolor
fill
grestore
stroke
grestore
gsave
334.8 223.2 54 36 clipbox
351.092 183.985 p0_0
gsave
0.369 0.310 0.635 setrgbcolor
fill
grestore
stroke
grestore
gsave
334.8 223.2 54 36 clipbox
215.949 245.651 p0_0
gsave
0.620 0.004 0.259 setrgbcolor
fill
grestore
stroke
grestore
gsave
334.8 223.2 54 36 clipbox
286.384 140.49 p0_0
gsave
0.620 0.004 0.259 setrgbcolor
fill
grestore
stroke
grestore
gsave
334.8 223.2 54 36 clipbox
155.17 203.559 p0_0
gsave
0.620 0.004 0.259 setrgbcolor
fill
grestore
stroke
grestore
gsave
334.8 223.2 54 36 clipbox
215.668 192.341 p0_0
gsave
0.369 0.310 0.635 setrgbcolor
fill
grestore
stroke
grestore
gsave
334.8 223.2 54 36 clipbox
130.152 150.288 p0_0
gsave
0.620 0.004 0.259 setrgbcolor
fill
grestore
stroke
grestore
gsave
334.8 223.2 54 36 clipbox
160.87 233.736 p0_0
gsave
0.620 0.004 0.259 setrgbcolor
fill
grestore
stroke
grestore
gsave
334.8 223.2 54 36 clipbox
322.167 121.473 p0_0
gsave
0.369 0.310 0.635 setrgbcolor
fill
grestore
stroke
grestore
gsave
334.8 223.2 54 36 clipbox
212.76 199.266 p0_0
gsave
0.620 0.004 0.259 setrgbcolor
fill
grestore
stroke
grestore
gsave
334.8 223.2 54 36 clipbox
158.227 204.816 p0_0
gsave
0.620 0.004 0.259 setrgbcolor
fill
grestore
stroke
grestore
gsave
334.8 223.2 54 36 clipbox
210.415 228.939 p0_0
gsave
0.620 0.004 0.259 setrgbcolor
fill
grestore
stroke
grestore
gsave
334.8 223.2 54 36 clipbox
186.397 243.088 p0_0
gsave
0.620 0.004 0.259 setrgbcolor
fill
grestore
stroke
grestore
gsave
334.8 223.2 54 36 clipbox
150.41 170.403 p0_0
gsave
0.620 0.004 0.259 setrgbcolor
fill
grestore
stroke
grestore
gsave
334.8 223.2 54 36 clipbox
274.008 170.294 p0_0
gsave
0.620 0.004 0.259 setrgbcolor
fill
grestore
stroke
grestore
gsave
334.8 223.2 54 36 clipbox
326.257 95.2584 p0_0
gsave
0.369 0.310 0.635 setrgbcolor
fill
grestore
stroke
grestore
gsave
334.8 223.2 54 36 clipbox
216.87 195.876 p0_0
gsave
0.620 0.004 0.259 setrgbcolor
fill
grestore
stroke
grestore
gsave
334.8 223.2 54 36 clipbox
353.664 166.216 p0_0
gsave
0.369 0.310 0.635 setrgbcolor
fill
grestore
stroke
grestore
gsave
334.8 223.2 54 36 clipbox
251.277 117.336 p0_0
gsave
0.369 0.310 0.635 setrgbcolor
fill
grestore
stroke
grestore
gsave
334.8 223.2 54 36 clipbox
244.233 167.034 p0_0
gsave
0.620 0.004 0.259 setrgbcolor
fill
grestore
stroke
grestore
gsave
334.8 223.2 54 36 clipbox
263.671 206.341 p0_0
gsave
0.620 0.004 0.259 setrgbcolor
fill
grestore
stroke
grestore
gsave
334.8 223.2 54 36 clipbox
166.815 180.098 p0_0
gsave
0.620 0.004 0.259 setrgbcolor
fill
grestore
stroke
grestore
gsave
334.8 223.2 54 36 clipbox
191.834 164.382 p0_0
gsave
0.369 0.310 0.635 setrgbcolor
fill
grestore
stroke
grestore
gsave
334.8 223.2 54 36 clipbox
211.605 221.372 p0_0
gsave
0.620 0.004 0.259 setrgbcolor
fill
grestore
stroke
grestore
gsave
334.8 223.2 54 36 clipbox
184.011 161.57 p0_0
gsave
0.369 0.310 0.635 setrgbcolor
fill
grestore
stroke
grestore
gsave
334.8 223.2 54 36 clipbox
133.375 202.199 p0_0
gsave
0.620 0.004 0.259 setrgbcolor
fill
grestore
stroke
grestore
gsave
334.8 223.2 54 36 clipbox
254.696 138.797 p0_0
gsave
0.620 0.004 0.259 setrgbcolor
fill
grestore
stroke
grestore
gsave
334.8 223.2 54 36 clipbox
227.599 158.021 p0_0
gsave
0.369 0.310 0.635 setrgbcolor
fill
grestore
stroke
grestore
gsave
334.8 223.2 54 36 clipbox
282.05 118.682 p0_0
gsave
0.369 0.310 0.635 setrgbcolor
fill
grestore
stroke
grestore
gsave
334.8 223.2 54 36 clipbox
346.913 194.555 p0_0
gsave
0.369 0.310 0.635 setrgbcolor
fill
grestore
stroke
grestore
gsave
334.8 223.2 54 36 clipbox
281.546 186.183 p0_0
gsave
0.620 0.004 0.259 setrgbcolor
fill
grestore
stroke
grestore
gsave
334.8 223.2 54 36 clipbox
164.974 188.713 p0_0
gsave
0.620 0.004 0.259 setrgbcolor
fill
grestore
stroke
grestore
gsave
334.8 223.2 54 36 clipbox
104.51 185.87 p0_0
gsave
0.620 0.004 0.259 setrgbcolor
fill
grestore
stroke
grestore
gsave
334.8 223.2 54 36 clipbox
224.711 128.197 p0_0
gsave
0.369 0.310 0.635 setrgbcolor
fill
grestore
stroke
grestore
gsave
334.8 223.2 54 36 clipbox
302.238 134.204 p0_0
gsave
0.369 0.310 0.635 setrgbcolor
fill
grestore
stroke
grestore
gsave
334.8 223.2 54 36 clipbox
315.323 155.845 p0_0
gsave
0.369 0.310 0.635 setrgbcolor
fill
grestore
stroke
grestore
gsave
334.8 223.2 54 36 clipbox
278.639 134.213 p0_0
gsave
0.369 0.310 0.635 setrgbcolor
fill
grestore
stroke
grestore
gsave
334.8 223.2 54 36 clipbox
118.501 155.866 p0_0
gsave
0.620 0.004 0.259 setrgbcolor
fill
grestore
stroke
grestore
gsave
334.8 223.2 54 36 clipbox
357.153 185.733 p0_0
gsave
0.369 0.310 0.635 setrgbcolor
fill
grestore
stroke
grestore
gsave
334.8 223.2 54 36 clipbox
257.448 187.376 p0_0
gsave
0.620 0.004 0.259 setrgbcolor
fill
grestore
stroke
grestore
gsave
334.8 223.2 54 36 clipbox
193.713 158.977 p0_0
gsave
0.369 0.310 0.635 setrgbcolor
fill
grestore
stroke
grestore
gsave
334.8 223.2 54 36 clipbox
198.655 190.221 p0_0
gsave
0.369 0.310 0.635 setrgbcolor
fill
grestore
stroke
grestore
gsave
334.8 223.2 54 36 clipbox
236.314 229.132 p0_0
gsave
0.620 0.004 0.259 setrgbcolor
fill
grestore
stroke
grestore
gsave
334.8 223.2 54 36 clipbox
149.198 223.29 p0_0
gsave
0.620 0.004 0.259 setrgbcolor
fill
grestore
stroke
grestore
gsave
334.8 223.2 54 36 clipbox
177.728 213.861 p0_0
gsave
0.620 0.004 0.259 setrgbcolor
fill
grestore
stroke
grestore
gsave
334.8 223.2 54 36 clipbox
281.878 160.42 p0_0
gsave
0.620 0.004 0.259 setrgbcolor
fill
grestore
stroke
grestore
gsave
334.8 223.2 54 36 clipbox
228.1 171.77 p0_0
gsave
0.369 0.310 0.635 setrgbcolor
fill
grestore
stroke
grestore
gsave
334.8 223.2 54 36 clipbox
295.422 109.376 p0_0
gsave
0.369 0.310 0.635 setrgbcolor
fill
grestore
stroke
grestore
gsave
334.8 223.2 54 36 clipbox
225.839 234.408 p0_0
gsave
0.620 0.004 0.259 setrgbcolor
fill
grestore
stroke
grestore
gsave
334.8 223.2 54 36 clipbox
198.251 145.427 p0_0
gsave
0.369 0.310 0.635 setrgbcolor
fill
grestore
stroke
grestore
gsave
334.8 223.2 54 36 clipbox
238.722 115.462 p0_0
gsave
0.369 0.310 0.635 setrgbcolor
fill
grestore
stroke
grestore
gsave
334.8 223.2 54 36 clipbox
328.338 96.4696 p0_0
gsave
0.369 0.310 0.635 setrgbcolor
fill
grestore
stroke
grestore
gsave
334.8 223.2 54 36 clipbox
262.961 168.741 p0_0
gsave
0.620 0.004 0.259 setrgbcolor
fill
grestore
stroke
grestore
gsave
334.8 223.2 54 36 clipbox
224.978 208.765 p0_0
gsave
0.620 0.004 0.259 setrgbcolor
fill
grestore
stroke
grestore
gsave
334.8 223.2 54 36 clipbox
266.014 124.903 p0_0
gsave
0.369 0.310 0.635 setrgbcolor
fill
grestore
stroke
grestore
gsave
334.8 223.2 54 36 clipbox
174.512 213.38 p0_0
gsave
0.620 0.004 0.259 setrgbcolor
fill
grestore
stroke
grestore
gsave
334.8 223.2 54 36 clipbox
301.554 111.846 p0_0
gsave
0.369 0.310 0.635 setrgbcolor
fill
grestore
stroke
grestore
gsave
334.8 223.2 54 36 clipbox
220.163 155.598 p0_0
gsave
0.369 0.310 0.635 setrgbcolor
fill
grestore
stroke
grestore
gsave
334.8 223.2 54 36 clipbox
254.018 233.211 p0_0
gsave
0.620 0.004 0.259 setrgbcolor
fill
grestore
stroke
grestore
gsave
334.8 223.2 54 36 clipbox
253.24 205.65 p0_0
gsave
0.620 0.004 0.259 setrgbcolor
fill
grestore
stroke
grestore
gsave
334.8 223.2 54 36 clipbox
228.066 145.945 p0_0
gsave
0.369 0.310 0.635 setrgbcolor
fill
grestore
stroke
grestore
gsave
334.8 223.2 54 36 clipbox
299.848 108.205 p0_0
gsave
0.369 0.310 0.635 setrgbcolor
fill
grestore
stroke
grestore
gsave
334.8 223.2 54 36 clipbox
258.829 211.04 p0_0
gsave
0.620 0.004 0.259 setrgbcolor
fill
grestore
stroke
grestore
gsave
334.8 223.2 54 36 clipbox
309.183 131.916 p0_0
gsave
0.369 0.310 0.635 setrgbcolor
fill
grestore
stroke
grestore
gsave
334.8 223.2 54 36 clipbox
244.19 94.9386 p0_0
gsave
0.369 0.310 0.635 setrgbcolor
fill
grestore
stroke
grestore
gsave
334.8 223.2 54 36 clipbox
310.966 157.063 p0_0
gsave
0.369 0.310 0.635 setrgbcolor
fill
grestore
stroke
grestore
gsave
334.8 223.2 54 36 clipbox
226.636 212.53 p0_0
gsave
0.620 0.004 0.259 setrgbcolor
fill
grestore
stroke
grestore
gsave
334.8 223.2 54 36 clipbox
242.342 127.196 p0_0
gsave
0.369 0.310 0.635 setrgbcolor
fill
grestore
stroke
grestore
gsave
334.8 223.2 54 36 clipbox
315.634 114.068 p0_0
gsave
0.369 0.310 0.635 setrgbcolor
fill
grestore
stroke
grestore
gsave
334.8 223.2 54 36 clipbox
277.071 87.3516 p0_0
gsave
0.369 0.310 0.635 setrgbcolor
fill
grestore
stroke
grestore
gsave
334.8 223.2 54 36 clipbox
250.355 219.475 p0_0
gsave
0.620 0.004 0.259 setrgbcolor
fill
grestore
stroke
grestore
gsave
334.8 223.2 54 36 clipbox
107.152 155.544 p0_0
gsave
0.620 0.004 0.259 setrgbcolor
fill
grestore
stroke
grestore
gsave
334.8 223.2 54 36 clipbox
122.566 189.563 p0_0
gsave
0.620 0.004 0.259 setrgbcolor
fill
grestore
stroke
grestore
gsave
334.8 223.2 54 36 clipbox
159.859 169.49 p0_0
gsave
0.620 0.004 0.259 setrgbcolor
fill
grestore
stroke
grestore
gsave
334.8 223.2 54 36 clipbox
221.7 147.121 p0_0
gsave
0.369 0.310 0.635 setrgbcolor
fill
grestore
stroke
grestore
gsave
334.8 223.2 54 36 clipbox
271.042 125.535 p0_0
gsave
0.369 0.310 0.635 setrgbcolor
fill
grestore
stroke
grestore
gsave
334.8 223.2 54 36 clipbox
309.475 199.072 p0_0
gsave
0.369 0.310 0.635 setrgbcolor
fill
grestore
stroke
grestore
gsave
334.8 223.2 54 36 clipbox
150.087 184.516 p0_0
gsave
0.620 0.004 0.259 setrgbcolor
fill
grestore
stroke
grestore
gsave
334.8 223.2 54 36 clipbox
154.676 182.547 p0_0
gsave
0.620 0.004 0.259 setrgbcolor
fill
grestore
stroke
grestore
gsave
334.8 223.2 54 36 clipbox
225.227 204.441 p0_0
gsave
0.620 0.004 0.259 setrgbcolor
fill
grestore
stroke
grestore
gsave
334.8 223.2 54 36 clipbox
312.964 121.018 p0_0
gsave
0.369 0.310 0.635 setrgbcolor
fill
grestore
stroke
grestore
gsave
334.8 223.2 54 36 clipbox
126.418 178.302 p0_0
gsave
0.620 0.004 0.259 setrgbcolor
fill
grestore
stroke
grestore
gsave
334.8 223.2 54 36 clipbox
343.908 166.507 p0_0
gsave
0.369 0.310 0.635 setrgbcolor
fill
grestore
stroke
grestore
gsave
334.8 223.2 54 36 clipbox
354.763 113.321 p0_0
gsave
0.369 0.310 0.635 setrgbcolor
fill
grestore
stroke
grestore
gsave
334.8 223.2 54 36 clipbox
346.149 177.969 p0_0
gsave
0.369 0.310 0.635 setrgbcolor
fill
grestore
stroke
grestore
gsave
334.8 223.2 54 36 clipbox
229.41 228.494 p0_0
gsave
0.620 0.004 0.259 setrgbcolor
fill
grestore
stroke
grestore
gsave
334.8 223.2 54 36 clipbox
212.028 197.949 p0_0
gsave
0.620 0.004 0.259 setrgbcolor
fill
grestore
stroke
grestore
gsave
334.8 223.2 54 36 clipbox
275.215 95.1252 p0_0
gsave
0.369 0.310 0.635 setrgbcolor
fill
grestore
stroke
grestore
gsave
334.8 223.2 54 36 clipbox
148.567 180.469 p0_0
gsave
0.620 0.004 0.259 setrgbcolor
fill
grestore
stroke
grestore
gsave
334.8 223.2 54 36 clipbox
150.822 205.349 p0_0
gsave
0.620 0.004 0.259 setrgbcolor
fill
grestore
stroke
grestore
gsave
334.8 223.2 54 36 clipbox
133.224 179.979 p0_0
gsave
0.620 0.004 0.259 setrgbcolor
fill
grestore
stroke
grestore
gsave
334.8 223.2 54 36 clipbox
236.404 222.138 p0_0
gsave
0.620 0.004 0.259 setrgbcolor
fill
grestore
stroke
grestore
gsave
334.8 223.2 54 36 clipbox
267.996 169.14 p0_0
gsave
0.620 0.004 0.259 setrgbcolor
fill
grestore
stroke
grestore
gsave
334.8 223.2 54 36 clipbox
268.388 165.401 p0_0
gsave
0.620 0.004 0.259 setrgbcolor
fill
grestore
stroke
grestore
gsave
334.8 223.2 54 36 clipbox
197 168.428 p0_0
gsave
0.369 0.310 0.635 setrgbcolor
fill
grestore
stroke
grestore
gsave
334.8 223.2 54 36 clipbox
160.864 213.957 p0_0
gsave
0.620 0.004 0.259 setrgbcolor
fill
grestore
stroke
grestore
gsave
334.8 223.2 54 36 clipbox
322.211 157.894 p0_0
gsave
0.369 0.310 0.635 setrgbcolor
fill
grestore
stroke
grestore
gsave
334.8 223.2 54 36 clipbox
223.406 148.501 p0_0
gsave
0.369 0.310 0.635 setrgbcolor
fill
grestore
stroke
grestore
gsave
334.8 223.2 54 36 clipbox
222.084 225.054 p0_0
gsave
0.620 0.004 0.259 setrgbcolor
fill
grestore
stroke
grestore
gsave
334.8 223.2 54 36 clipbox
316.001 138.234 p0_0
gsave
0.369 0.310 0.635 setrgbcolor
fill
grestore
stroke
grestore
0 setlinejoin
2 setlinecap
gsave
54 259.2 m
388.8 259.2 l
stroke
grestore
gsave
388.8 36 m
388.8 259.2 l
stroke
grestore
gsave
54 36 m
388.8 36 l
stroke
grestore
gsave
54 36 m
54 259.2 l
stroke
grestore
0.500 setlinewidth
1 setlinejoin
0 setlinecap
gsave
/o {
gsave
newpath
translate
0.5 setlinewidth
1 setlinejoin
0 setlinecap
0 0 m
0 4 l

gsave
0.000 setgray
fill
grestore
stroke
grestore
} bind def
54 36 o
grestore
gsave
/o {
gsave
newpath
translate
0.5 setlinewidth
1 setlinejoin
0 setlinecap
0 0 m
0 -4 l

gsave
0.000 setgray
fill
grestore
stroke
grestore
} bind def
54 259.2 o
grestore
/BitstreamVeraSans-Roman findfont
10.000 scalefont
setfont
gsave
41.859375 24.406250 translate
0.000000 rotate
0.000000 0.000000 m /minus glyphshow
8.378906 0.000000 m /two glyphshow
14.741211 0.000000 m /period glyphshow
17.919922 0.000000 m /zero glyphshow
grestore
gsave
/o {
gsave
newpath
translate
0.5 setlinewidth
1 setlinejoin
0 setlinecap
0 0 m
0 4 l

gsave
0.000 setgray
fill
grestore
stroke
grestore
} bind def
91.2 36 o
grestore
gsave
/o {
gsave
newpath
translate
0.5 setlinewidth
1 setlinejoin
0 setlinecap
0 0 m
0 -4 l

gsave
0.000 setgray
fill
grestore
stroke
grestore
} bind def
91.2 259.2 o
grestore
gsave
79.059375 24.406250 translate
0.000000 rotate
0.000000 0.000000 m /minus glyphshow
8.378906 0.000000 m /one glyphshow
14.741211 0.000000 m /period glyphshow
17.919922 0.000000 m /five glyphshow
grestore
gsave
/o {
gsave
newpath
translate
0.5 setlinewidth
1 setlinejoin
0 setlinecap
0 0 m
0 4 l

gsave
0.000 setgray
fill
grestore
stroke
grestore
} bind def
128.4 36 o
grestore
gsave
/o {
gsave
newpath
translate
0.5 setlinewidth
1 setlinejoin
0 setlinecap
0 0 m
0 -4 l

gsave
0.000 setgray
fill
grestore
stroke
grestore
} bind def
128.4 259.2 o
grestore
gsave
116.259375 24.406250 translate
0.000000 rotate
0.000000 0.000000 m /minus glyphshow
8.378906 0.000000 m /one glyphshow
14.741211 0.000000 m /period glyphshow
17.919922 0.000000 m /zero glyphshow
grestore
gsave
/o {
gsave
newpath
translate
0.5 setlinewidth
1 setlinejoin
0 setlinecap
0 0 m
0 4 l

gsave
0.000 setgray
fill
grestore
stroke
grestore
} bind def
165.6 36 o
grestore
gsave
/o {
gsave
newpath
translate
0.5 setlinewidth
1 setlinejoin
0 setlinecap
0 0 m
0 -4 l

gsave
0.000 setgray
fill
grestore
stroke
grestore
} bind def
165.6 259.2 o
grestore
gsave
153.459375 24.406250 translate
0.000000 rotate
0.000000 0.000000 m /minus glyphshow
8.378906 0.000000 m /zero glyphshow
14.741211 0.000000 m /period glyphshow
17.919922 0.000000 m /five glyphshow
grestore
gsave
/o {
gsave
newpath
translate
0.5 setlinewidth
1 setlinejoin
0 setlinecap
0 0 m
0 4 l

gsave
0.000 setgray
fill
grestore
stroke
grestore
} bind def
202.8 36 o
grestore
gsave
/o {
gsave
newpath
translate
0.5 setlinewidth
1 setlinejoin
0 setlinecap
0 0 m
0 -4 l

gsave
0.000 setgray
fill
grestore
stroke
grestore
} bind def
202.8 259.2 o
grestore
gsave
194.846875 24.406250 translate
0.000000 rotate
0.000000 0.000000 m /zero glyphshow
6.362305 0.000000 m /period glyphshow
9.541016 0.000000 m /zero glyphshow
grestore
gsave
/o {
gsave
newpath
translate
0.5 setlinewidth
1 setlinejoin
0 setlinecap
0 0 m
0 4 l

gsave
0.000 setgray
fill
grestore
stroke
grestore
} bind def
240 36 o
grestore
gsave
/o {
gsave
newpath
translate
0.5 setlinewidth
1 setlinejoin
0 setlinecap
0 0 m
0 -4 l

gsave
0.000 setgray
fill
grestore
stroke
grestore
} bind def
240 259.2 o
grestore
gsave
232.046875 24.406250 translate
0.000000 rotate
0.000000 0.000000 m /zero glyphshow
6.362305 0.000000 m /period glyphshow
9.541016 0.000000 m /five glyphshow
grestore
gsave
/o {
gsave
newpath
translate
0.5 setlinewidth
1 setlinejoin
0 setlinecap
0 0 m
0 4 l

gsave
0.000 setgray
fill
grestore
stroke
grestore
} bind def
277.2 36 o
grestore
gsave
/o {
gsave
newpath
translate
0.5 setlinewidth
1 setlinejoin
0 setlinecap
0 0 m
0 -4 l

gsave
0.000 setgray
fill
grestore
stroke
grestore
} bind def
277.2 259.2 o
grestore
gsave
269.246875 24.406250 translate
0.000000 rotate
0.000000 0.000000 m /one glyphshow
6.362305 0.000000 m /period glyphshow
9.541016 0.000000 m /zero glyphshow
grestore
gsave
/o {
gsave
newpath
translate
0.5 setlinewidth
1 setlinejoin
0 setlinecap
0 0 m
0 4 l

gsave
0.000 setgray
fill
grestore
stroke
grestore
} bind def
314.4 36 o
grestore
gsave
/o {
gsave
newpath
translate
0.5 setlinewidth
1 setlinejoin
0 setlinecap
0 0 m
0 -4 l

gsave
0.000 setgray
fill
grestore
stroke
grestore
} bind def
314.4 259.2 o
grestore
gsave
306.446875 24.406250 translate
0.000000 rotate
0.000000 0.000000 m /one glyphshow
6.362305 0.000000 m /period glyphshow
9.541016 0.000000 m /five glyphshow
grestore
gsave
/o {
gsave
newpath
translate
0.5 setlinewidth
1 setlinejoin
0 setlinecap
0 0 m
0 4 l

gsave
0.000 setgray
fill
grestore
stroke
grestore
} bind def
351.6 36 o
grestore
gsave
/o {
gsave
newpath
translate
0.5 setlinewidth
1 setlinejoin
0 setlinecap
0 0 m
0 -4 l

gsave
0.000 setgray
fill
grestore
stroke
grestore
} bind def
351.6 259.2 o
grestore
gsave
343.646875 24.406250 translate
0.000000 rotate
0.000000 0.000000 m /two glyphshow
6.362305 0.000000 m /period glyphshow
9.541016 0.000000 m /zero glyphshow
grestore
gsave
/o {
gsave
newpath
translate
0.5 setlinewidth
1 setlinejoin
0 setlinecap
0 0 m
0 4 l

gsave
0.000 setgray
fill
grestore
stroke
grestore
} bind def
388.8 36 o
grestore
gsave
/o {
gsave
newpath
translate
0.5 setlinewidth
1 setlinejoin
0 setlinecap
0 0 m
0 -4 l

gsave
0.000 setgray
fill
grestore
stroke
grestore
} bind def
388.8 259.2 o
grestore
gsave
380.846875 24.406250 translate
0.000000 rotate
0.000000 0.000000 m /two glyphshow
6.362305 0.000000 m /period glyphshow
9.541016 0.000000 m /five glyphshow
grestore
gsave
/o {
gsave
newpath
translate
0.5 setlinewidth
1 setlinejoin
0 setlinecap
0 0 m
4 0 l

gsave
0.000 setgray
fill
grestore
stroke
grestore
} bind def
54 36 o
grestore
gsave
/o {
gsave
newpath
translate
0.5 setlinewidth
1 setlinejoin
0 setlinecap
0 0 m
-4 0 l

gsave
0.000 setgray
fill
grestore
stroke
grestore
} bind def
388.8 36 o
grestore
gsave
25.718750 33.242188 translate
0.000000 rotate
0.000000 0.000000 m /minus glyphshow
8.378906 0.000000 m /one glyphshow
14.741211 0.000000 m /period glyphshow
17.919922 0.000000 m /five glyphshow
grestore
gsave
/o {
gsave
newpath
translate
0.5 setlinewidth
1 setlinejoin
0 setlinecap
0 0 m
4 0 l

gsave
0.000 setgray
fill
grestore
stroke
grestore
} bind def
54 73.2 o
grestore
gsave
/o {
gsave
newpath
translate
0.5 setlinewidth
1 setlinejoin
0 setlinecap
0 0 m
-4 0 l

gsave
0.000 setgray
fill
grestore
stroke
grestore
} bind def
388.8 73.2 o
grestore
gsave
25.718750 70.442188 translate
0.000000 rotate
0.000000 0.000000 m /minus glyphshow
8.378906 0.000000 m /one glyphshow
14.741211 0.000000 m /period glyphshow
17.919922 0.000000 m /zero glyphshow
grestore
gsave
/o {
gsave
newpath
translate
0.5 setlinewidth
1 setlinejoin
0 setlinecap
0 0 m
4 0 l

gsave
0.000 setgray
fill
grestore
stroke
grestore
} bind def
54 110.4 o
grestore
gsave
/o {
gsave
newpath
translate
0.5 setlinewidth
1 setlinejoin
0 setlinecap
0 0 m
-4 0 l

gsave
0.000 setgray
fill
grestore
stroke
grestore
} bind def
388.8 110.4 o
grestore
gsave
25.718750 107.642188 translate
0.000000 rotate
0.000000 0.000000 m /minus glyphshow
8.378906 0.000000 m /zero glyphshow
14.741211 0.000000 m /period glyphshow
17.919922 0.000000 m /five glyphshow
grestore
gsave
/o {
gsave
newpath
translate
0.5 setlinewidth
1 setlinejoin
0 setlinecap
0 0 m
4 0 l

gsave
0.000 setgray
fill
grestore
stroke
grestore
} bind def
54 147.6 o
grestore
gsave
/o {
gsave
newpath
translate
0.5 setlinewidth
1 setlinejoin
0 setlinecap
0 0 m
-4 0 l

gsave
0.000 setgray
fill
grestore
stroke
grestore
} bind def
388.8 147.6 o
grestore
gsave
34.093750 144.842187 translate
0.000000 rotate
0.000000 0.000000 m /zero glyphshow
6.362305 0.000000 m /period glyphshow
9.541016 0.000000 m /zero glyphshow
grestore
gsave
/o {
gsave
newpath
translate
0.5 setlinewidth
1 setlinejoin
0 setlinecap
0 0 m
4 0 l

gsave
0.000 setgray
fill
grestore
stroke
grestore
} bind def
54 184.8 o
grestore
gsave
/o {
gsave
newpath
translate
0.5 setlinewidth
1 setlinejoin
0 setlinecap
0 0 m
-4 0 l

gsave
0.000 setgray
fill
grestore
stroke
grestore
} bind def
388.8 184.8 o
grestore
gsave
34.093750 182.042187 translate
0.000000 rotate
0.000000 0.000000 m /zero glyphshow
6.362305 0.000000 m /period glyphshow
9.541016 0.000000 m /five glyphshow
grestore
gsave
/o {
gsave
newpath
translate
0.5 setlinewidth
1 setlinejoin
0 setlinecap
0 0 m
4 0 l

gsave
0.000 setgray
fill
grestore
stroke
grestore
} bind def
54 222 o
grestore
gsave
/o {
gsave
newpath
translate
0.5 setlinewidth
1 setlinejoin
0 setlinecap
0 0 m
-4 0 l

gsave
0.000 setgray
fill
grestore
stroke
grestore
} bind def
388.8 222 o
grestore
gsave
34.093750 219.242188 translate
0.000000 rotate
0.000000 0.000000 m /one glyphshow
6.362305 0.000000 m /period glyphshow
9.541016 0.000000 m /zero glyphshow
grestore
gsave
/o {
gsave
newpath
translate
0.5 setlinewidth
1 setlinejoin
0 setlinecap
0 0 m
4 0 l

gsave
0.000 setgray
fill
grestore
stroke
grestore
} bind def
54 259.2 o
grestore
gsave
/o {
gsave
newpath
translate
0.5 setlinewidth
1 setlinejoin
0 setlinecap
0 0 m
-4 0 l

gsave
0.000 setgray
fill
grestore
stroke
grestore
} bind def
388.8 259.2 o
grestore
gsave
34.093750 256.442187 translate
0.000000 rotate
0.000000 0.000000 m /one glyphshow
6.362305 0.000000 m /period glyphshow
9.541016 0.000000 m /five glyphshow
grestore

end
showpage
